dump.vcd
$date
	Wed Jul  9 17:10:02 2025
$end
$version
	Icarus Verilog
$end
$timescale
	1s
$end
$scope module testbench $end
$var wire 4 ! state [3:0] $end
$var wire 32 " WriteData [31:0] $end
$var wire 32 # PC [31:0] $end
$var wire 1 $ MemWrite $end
$var wire 32 % Instr [31:0] $end
$var wire 32 & Adr [31:0] $end
$var reg 1 ' clk $end
$var reg 1 ( reset $end
$var integer 32 ) i [31:0] $end
$scope module dut $end
$var wire 1 ' clk $end
$var wire 1 ( reset $end
$var wire 32 * WriteData [31:0] $end
$var wire 32 + ReadData [31:0] $end
$var wire 32 , PC [31:0] $end
$var wire 1 $ MemWrite $end
$var wire 32 - Instr [31:0] $end
$var wire 32 . Adr [31:0] $end
$scope module arm $end
$var wire 1 ' clk $end
$var wire 1 ( reset $end
$var wire 32 / WriteData [31:0] $end
$var wire 2 0 ResultSrc [1:0] $end
$var wire 1 1 RegWriteHi $end
$var wire 1 2 RegWrite $end
$var wire 2 3 RegSrc [1:0] $end
$var wire 32 4 ReadData [31:0] $end
$var wire 1 5 PCWrite $end
$var wire 32 6 PC [31:0] $end
$var wire 1 $ MemWrite $end
$var wire 1 7 IsMovt $end
$var wire 1 8 IsMovm $end
$var wire 32 9 Instr [31:0] $end
$var wire 2 : ImmSrc [1:0] $end
$var wire 1 ; IRWrite $end
$var wire 1 < AdrSrc $end
$var wire 32 = Adr [31:0] $end
$var wire 2 > ALUSrcB [1:0] $end
$var wire 1 ? ALUSrcA $end
$var wire 4 @ ALUFlags [3:0] $end
$var wire 4 A ALUControl [3:0] $end
$scope module c $end
$var wire 1 ' clk $end
$var wire 1 ( reset $end
$var wire 2 B ResultSrc [1:0] $end
$var wire 1 1 RegWriteHi $end
$var wire 1 2 RegWrite $end
$var wire 1 C RegWHi $end
$var wire 1 D RegW $end
$var wire 2 E RegSrc [1:0] $end
$var wire 1 5 PCWrite $end
$var wire 1 F PCS $end
$var wire 1 G NextPC $end
$var wire 1 $ MemWrite $end
$var wire 1 H MemW $end
$var wire 1 7 IsMovt $end
$var wire 1 8 IsMovm $end
$var wire 32 I Instr [31:0] $end
$var wire 2 J ImmSrc [1:0] $end
$var wire 1 ; IRWrite $end
$var wire 2 K FlagW [1:0] $end
$var wire 1 < AdrSrc $end
$var wire 2 L ALUSrcB [1:0] $end
$var wire 1 ? ALUSrcA $end
$var wire 4 M ALUFlags [3:0] $end
$var wire 4 N ALUControl [3:0] $end
$scope module cl $end
$var wire 4 O Cond [3:0] $end
$var wire 2 P FlagWrite [1:0] $end
$var wire 1 $ MemWrite $end
$var wire 1 5 PCWrite $end
$var wire 1 2 RegWrite $end
$var wire 1 1 RegWriteHi $end
$var wire 1 ' clk $end
$var wire 1 ( reset $end
$var wire 1 C RegWHi $end
$var wire 1 D RegW $end
$var wire 1 F PCS $end
$var wire 1 G NextPC $end
$var wire 1 H MemW $end
$var wire 4 Q Flags [3:0] $end
$var wire 2 R FlagW [1:0] $end
$var wire 1 S CondExNext $end
$var wire 1 T CondEx $end
$var wire 4 U ALUFlags [3:0] $end
$scope module condchk $end
$var wire 4 V Cond [3:0] $end
$var wire 4 W Flags [3:0] $end
$var wire 1 X ge $end
$var wire 1 Y zero $end
$var wire 1 Z overflow $end
$var wire 1 [ neg $end
$var wire 1 \ carry $end
$var reg 1 T CondEx $end
$upscope $end
$scope module condreg $end
$var wire 1 ' clk $end
$var wire 1 T d $end
$var wire 1 ( reset $end
$var parameter 32 ] WIDTH $end
$var reg 1 S q $end
$upscope $end
$scope module flagreg_hi $end
$var wire 1 ' clk $end
$var wire 2 ^ d [1:0] $end
$var wire 1 _ en $end
$var wire 1 ( reset $end
$var parameter 32 ` WIDTH $end
$var reg 2 a q [1:0] $end
$upscope $end
$scope module flagreg_lo $end
$var wire 1 ' clk $end
$var wire 2 b d [1:0] $end
$var wire 1 c en $end
$var wire 1 ( reset $end
$var parameter 32 d WIDTH $end
$var reg 2 e q [1:0] $end
$upscope $end
$upscope $end
$scope module dec $end
$var wire 1 8 IsMovm $end
$var wire 1 7 IsMovt $end
$var wire 1 F PCS $end
$var wire 1 C RegWHi $end
$var wire 1 ' clk $end
$var wire 1 f is_custom_float $end
$var wire 1 g is_fadds $end
$var wire 1 h is_fmuls $end
$var wire 1 i is_mov $end
$var wire 1 j is_movm $end
$var wire 1 k is_movt $end
$var wire 1 l is_smul $end
$var wire 1 m is_umul $end
$var wire 1 n mul_long $end
$var wire 1 ( reset $end
$var wire 1 o S_flag $end
$var wire 2 p ResultSrc [1:0] $end
$var wire 1 q RegWHi_int $end
$var wire 1 D RegW $end
$var wire 2 r RegSrc [1:0] $end
$var wire 4 s Rd [3:0] $end
$var wire 4 t Opcode [3:0] $end
$var wire 2 u Op [1:0] $end
$var wire 1 G NextPC $end
$var wire 1 H MemW $end
$var wire 32 v Instr [31:0] $end
$var wire 2 w ImmSrc [1:0] $end
$var wire 1 x I_flag $end
$var wire 1 ; IRWrite $end
$var wire 6 y Funct [5:0] $end
$var wire 1 z Branch $end
$var wire 1 < AdrSrc $end
$var wire 2 { ALUSrcB [1:0] $end
$var wire 1 ? ALUSrcA $end
$var wire 1 | ALUOp $end
$var reg 4 } ALUControl [3:0] $end
$var reg 2 ~ FlagW [1:0] $end
$scope module fsm $end
$var wire 6 !" Funct [5:0] $end
$var wire 2 "" Op [1:0] $end
$var wire 1 ' clk $end
$var wire 1 ( reset $end
$var wire 2 #" ResultSrc [1:0] $end
$var wire 1 q RegWHi $end
$var wire 1 D RegW $end
$var wire 1 G NextPC $end
$var wire 1 H MemW $end
$var wire 1 ; IRWrite $end
$var wire 1 z Branch $end
$var wire 1 < AdrSrc $end
$var wire 2 $" ALUSrcB [1:0] $end
$var wire 1 ? ALUSrcA $end
$var wire 1 | ALUOp $end
$var parameter 4 %" ALUWB $end
$var parameter 4 &" BRANCH $end
$var parameter 4 '" DECODE $end
$var parameter 4 (" EXECUTEI $end
$var parameter 4 )" EXECUTER $end
$var parameter 4 *" FETCH $end
$var parameter 4 +" MEMADR $end
$var parameter 4 ," MEMRD $end
$var parameter 4 -" MEMWB $end
$var parameter 4 ." MEMWR $end
$var parameter 4 /" UNKNOWN $end
$var reg 13 0" controls [12:0] $end
$var reg 4 1" nextstate [3:0] $end
$var reg 4 2" state [3:0] $end
$upscope $end
$upscope $end
$upscope $end
$scope module dp $end
$var wire 4 3" ALUControl [3:0] $end
$var wire 1 ? ALUSrcA $end
$var wire 2 4" ALUSrcB [1:0] $end
$var wire 1 < AdrSrc $end
$var wire 1 ; IRWrite $end
$var wire 2 5" ImmSrc [1:0] $end
$var wire 1 8 IsMovm $end
$var wire 1 7 IsMovt $end
$var wire 1 $ MemWrite $end
$var wire 32 6" PCNext [31:0] $end
$var wire 1 5 PCWrite $end
$var wire 2 7" RegSrc [1:0] $end
$var wire 1 2 RegWrite $end
$var wire 1 1 RegWriteHi $end
$var wire 2 8" ResultSrc [1:0] $end
$var wire 1 ' clk $end
$var wire 1 9" isMul $end
$var wire 1 :" mul_long $end
$var wire 1 ( reset $end
$var wire 32 ;" WriteData [31:0] $end
$var wire 4 <" WA4 [3:0] $end
$var wire 4 =" WA3 [3:0] $end
$var wire 32 >" SrcB [31:0] $end
$var wire 32 ?" SrcA [31:0] $end
$var wire 32 @" Result [31:0] $end
$var wire 32 A" ReadData [31:0] $end
$var wire 32 B" RD2 [31:0] $end
$var wire 32 C" RD1 [31:0] $end
$var wire 4 D" RA2 [3:0] $end
$var wire 4 E" RA1 [3:0] $end
$var wire 32 F" PC [31:0] $end
$var wire 32 G" Instr [31:0] $end
$var wire 32 H" ExtImm [31:0] $end
$var wire 32 I" Data [31:0] $end
$var wire 32 J" Adr [31:0] $end
$var wire 32 K" ALUResultHi [31:0] $end
$var wire 32 L" ALUResult [31:0] $end
$var wire 32 M" ALUOutHi [31:0] $end
$var wire 32 N" ALUOut [31:0] $end
$var wire 4 O" ALUFlags [3:0] $end
$var wire 32 P" A [31:0] $end
$scope module alu $end
$var wire 4 Q" ALUControl [3:0] $end
$var wire 32 R" a [31:0] $end
$var wire 1 S" is_logic $end
$var wire 1 T" resultado_signo $end
$var wire 1 U" zero $end
$var wire 64 V" umul_result [63:0] $end
$var wire 33 W" sum [32:0] $end
$var wire 64 X" smul_result [63:0] $end
$var wire 1 Y" signo_b $end
$var wire 1 Z" signo_a $end
$var wire 1 [" overflow $end
$var wire 1 \" neg $end
$var wire 64 ]" mul_unsigned [63:0] $end
$var wire 32 ^" float_mul_result [31:0] $end
$var wire 32 _" float_add_result [31:0] $end
$var wire 32 `" condinvb [31:0] $end
$var wire 1 a" carry $end
$var wire 32 b" b [31:0] $end
$var wire 32 c" abs_b [31:0] $end
$var wire 32 d" abs_a [31:0] $end
$var wire 32 e" ExtImm [31:0] $end
$var wire 4 f" ALUFlags [3:0] $end
$var wire 32 g" A [31:0] $end
$var reg 32 h" Result [31:0] $end
$var reg 32 i" ResultHi [31:0] $end
$scope module fadd_inst $end
$var wire 32 j" a [31:0] $end
$var wire 1 k" sign_b $end
$var wire 1 l" sign_a $end
$var wire 32 m" result [31:0] $end
$var wire 24 n" norm_mant_b [23:0] $end
$var wire 24 o" norm_mant_a [23:0] $end
$var wire 23 p" mant_b [22:0] $end
$var wire 23 q" mant_a [22:0] $end
$var wire 8 r" exp_b [7:0] $end
$var wire 8 s" exp_a [7:0] $end
$var wire 1 t" carry $end
$var wire 32 u" b [31:0] $end
$var reg 25 v" add_result [24:0] $end
$var reg 24 w" aligned_mant [23:0] $end
$var reg 8 x" exp_diff [7:0] $end
$var reg 8 y" normalized_exp [7:0] $end
$var reg 24 z" normalized_mant_full [23:0] $end
$var reg 8 {" pre_norm_exp [7:0] $end
$var reg 1 |" result_sign $end
$upscope $end
$scope module fmul_inst $end
$var wire 32 }" a [31:0] $end
$var wire 1 ~" result_sign $end
$var wire 1 !# sign_b $end
$var wire 1 "# sign_a $end
$var wire 32 ## result [31:0] $end
$var wire 8 $# pre_norm_exp [7:0] $end
$var wire 24 %# norm_mant_b [23:0] $end
$var wire 24 &# norm_mant_a [23:0] $end
$var wire 1 '# needs_norm $end
$var wire 48 (# mult_mant_result [47:0] $end
$var wire 23 )# mant_b [22:0] $end
$var wire 23 *# mant_a [22:0] $end
$var wire 8 +# exp_b [7:0] $end
$var wire 8 ,# exp_a [7:0] $end
$var wire 32 -# b [31:0] $end
$var reg 8 .# normalized_exp [7:0] $end
$var reg 23 /# normalized_mant [22:0] $end
$upscope $end
$upscope $end
$scope module ext $end
$var wire 2 0# ImmSrc [1:0] $end
$var wire 24 1# Instr [23:0] $end
$var wire 1 8 IsMovm $end
$var wire 1 7 IsMovt $end
$var reg 32 2# ExtImm [31:0] $end
$upscope $end
$scope module ffALUOut $end
$var wire 1 ' clk $end
$var wire 32 3# d [31:0] $end
$var wire 1 ( reset $end
$var parameter 32 4# WIDTH $end
$var reg 32 5# q [31:0] $end
$upscope $end
$scope module ffALUOutHi $end
$var wire 1 ' clk $end
$var wire 32 6# d [31:0] $end
$var wire 1 ( reset $end
$var parameter 32 7# WIDTH $end
$var reg 32 8# q [31:0] $end
$upscope $end
$scope module ffData $end
$var wire 1 ' clk $end
$var wire 1 ( reset $end
$var wire 32 9# d [31:0] $end
$var parameter 32 :# WIDTH $end
$var reg 32 ;# q [31:0] $end
$upscope $end
$scope module ffRD1 $end
$var wire 1 ' clk $end
$var wire 1 ( reset $end
$var wire 32 <# d [31:0] $end
$var parameter 32 =# WIDTH $end
$var reg 32 ># q [31:0] $end
$upscope $end
$scope module ffRD2 $end
$var wire 1 ' clk $end
$var wire 1 ( reset $end
$var wire 32 ?# d [31:0] $end
$var parameter 32 @# WIDTH $end
$var reg 32 A# q [31:0] $end
$upscope $end
$scope module irreg $end
$var wire 1 ' clk $end
$var wire 1 ; en $end
$var wire 1 ( reset $end
$var wire 32 B# d [31:0] $end
$var parameter 32 C# WIDTH $end
$var reg 32 D# q [31:0] $end
$upscope $end
$scope module muxALUSrcB $end
$var wire 32 E# d0 [31:0] $end
$var wire 32 F# d1 [31:0] $end
$var wire 32 G# d2 [31:0] $end
$var wire 2 H# s [1:0] $end
$var wire 32 I# y [31:0] $end
$var parameter 32 J# WIDTH $end
$upscope $end
$scope module muxAdrSrc $end
$var wire 1 < s $end
$var wire 32 K# y [31:0] $end
$var wire 32 L# d1 [31:0] $end
$var wire 32 M# d0 [31:0] $end
$var parameter 32 N# WIDTH $end
$upscope $end
$scope module muxResultSrc $end
$var wire 32 O# d0 [31:0] $end
$var wire 32 P# d1 [31:0] $end
$var wire 32 Q# d2 [31:0] $end
$var wire 2 R# s [1:0] $end
$var wire 32 S# y [31:0] $end
$var parameter 32 T# WIDTH $end
$upscope $end
$scope module pcreg $end
$var wire 1 ' clk $end
$var wire 32 U# d [31:0] $end
$var wire 1 5 en $end
$var wire 1 ( reset $end
$var parameter 32 V# WIDTH $end
$var reg 32 W# q [31:0] $end
$upscope $end
$scope module rf $end
$var wire 1 ' clk $end
$var wire 32 X# r15 [31:0] $end
$var wire 4 Y# ra1 [3:0] $end
$var wire 4 Z# ra2 [3:0] $end
$var wire 4 [# wa3 [3:0] $end
$var wire 4 \# wa4 [3:0] $end
$var wire 32 ]# wd3 [31:0] $end
$var wire 32 ^# wd4 [31:0] $end
$var wire 1 2 we3 $end
$var wire 1 1 we4 $end
$var wire 32 _# rd2 [31:0] $end
$var wire 32 `# rd1 [31:0] $end
$upscope $end
$upscope $end
$upscope $end
$scope module mem $end
$var wire 32 a# a [31:0] $end
$var wire 1 ' clk $end
$var wire 32 b# rd [31:0] $end
$var wire 32 c# wd [31:0] $end
$var wire 1 $ we $end
$upscope $end
$upscope $end
$upscope $end
$enddefinitions $end
$comment Show the parameter values. $end
$dumpall
b100000 V#
b100000 T#
b100000 N#
b100000 J#
b100000 C#
b100000 @#
b100000 =#
b100000 :#
b100000 7#
b100000 4#
b1010 /"
b101 ."
b100 -"
b11 ,"
b10 +"
b0 *"
b110 )"
b111 ("
b1 '"
b1001 &"
b1000 %"
b10 d
b10 `
b1 ]
$end
#0
$dumpvars
b0 c#
b11100011101000000001000000000000 b#
b0 a#
bx `#
bx _#
b0 ^#
b100 ]#
b0 \#
b0 [#
b0 Z#
b0 Y#
b100 X#
b0 W#
b100 U#
b100 S#
b10 R#
b100 Q#
b0 P#
b0 O#
b0 M#
b100 L#
b0 K#
b100 I#
b10 H#
b100 G#
b0 F#
b0 E#
b0 D#
b11100011101000000001000000000000 B#
b0 A#
bx ?#
b0 >#
bx <#
b0 ;#
b11100011101000000001000000000000 9#
b0 8#
b0 6#
b0 5#
b100 3#
b0 2#
b0 1#
b0 0#
b100 /#
b10000001 .#
b100 -#
b0 ,#
b0 +#
b0 *#
b100 )#
b10000000000000000000010000000000000000000000000 (#
0'#
b100000000000000000000000 &#
b100000000000000000000100 %#
b10000001 $#
b1000000100000000000000000000100 ##
0"#
0!#
0~"
b0 }"
0|"
b0 {"
b100000000000000000000010 z"
b1 y"
b0 x"
b100000000000000000000100 w"
b1000000000000000000000100 v"
b100 u"
1t"
b0 s"
b0 r"
b0 q"
b100 p"
b100000000000000000000000 o"
b100000000000000000000100 n"
b100000000000000000000010 m"
0l"
0k"
b0 j"
b0 i"
b100 h"
b0 g"
b0 f"
b0 e"
b0 d"
b100 c"
b100 b"
0a"
b100 `"
b100000000000000000000010 _"
b1000000100000000000000000000100 ^"
b0 ]"
0\"
0["
0Z"
0Y"
b0 X"
b100 W"
b0 V"
0U"
0T"
0S"
b0 R"
b0 Q"
b0 P"
b0 O"
b0 N"
b0 M"
b100 L"
b0 K"
b0 J"
b0 I"
b0 H"
b0 G"
b0 F"
b0 E"
b0 D"
bx C"
bx B"
b11100011101000000001000000000000 A"
b100 @"
b0 ?"
b100 >"
b0 ="
b0 <"
b0 ;"
0:"
09"
b10 8"
b0 7"
b100 6"
b0 5"
b10 4"
b0 3"
b0 2"
b1 1"
b10010101100 0"
b10 $"
b10 #"
b0 ""
b0 !"
b0 ~
b0 }
0|
b10 {
1z
b0 y
0x
b0 w
b0 v
b0 u
b0 t
b0 s
b0 r
0q
b10 p
0o
0n
0m
0l
0k
0j
0i
0h
0g
0f
b0 e
0c
b0 b
b0 a
0_
b0 ^
0\
0[
0Z
0Y
1X
b0 W
b0 V
b0 U
0T
0S
b0 R
b0 Q
b0 P
b0 O
b0 N
b0 M
b10 L
b0 K
b0 J
b0 I
0H
0G
1F
b0 E
0D
0C
b10 B
b0 A
b0 @
1?
b10 >
b0 =
0<
1;
b0 :
b0 9
08
07
b0 6
15
b11100011101000000001000000000000 4
b0 3
02
01
b10 0
b0 /
b0 .
b0 -
b0 ,
b11100011101000000001000000000000 +
b0 *
bx )
1(
0'
b0 &
b0 %
0$
b0 #
b0 "
b0 !
$end
#5
1'
#10
0'
#15
1'
#20
0'
#22
0(
#25
b11 :
b11 J
b11 w
b11 5"
b11 0#
b100000000000000000000100 _"
b100000000000000000000100 m"
b100000000000000000000100 z"
05
b10000 X"
b1000000000000000000001000 v"
b1000000100000000000000000001000 ^"
b1000000100000000000000000001000 ##
b1000 /#
0F
b1000 6"
b1000 U#
b1000 @"
b1000 L#
b1000 S#
b1000 X#
b1000 ]#
1i
1T
b11100011110000000001000011000000 +
b11100011110000000001000011000000 4
b11100011110000000001000011000000 A"
b11100011110000000001000011000000 9#
b11100011110000000001000011000000 B#
b11100011110000000001000011000000 b#
b10000 ]"
b100 d"
b100000000000000000000100 o"
b100 q"
b10000000000000000000100000000000000000000010000 (#
b100000000000000000000100 &#
b100 *#
0z
0;
b0 @
b0 M
b0 U
b0 O"
b0 f"
0U"
b1000 L"
b1000 h"
b1000 3#
b1000 Q#
b101000000001000000000000 1#
b1 ="
b1 [#
b111010 y
b111010 !"
b1 s
b1101 t
1x
b1110 O
b1110 V
b100 &
b100 .
b100 =
b100 J"
b100 K#
b100 a#
b10000 V"
b1000 W"
b100 ?"
b100 R"
b100 j"
b100 }"
b101100 0"
b111 1"
b11100011101000000001000000000000 I"
b11100011101000000001000000000000 ;#
b11100011101000000001000000000000 P#
b100 N"
b100 5#
b100 O#
bx "
bx *
bx /
bx ;"
bx A#
bx E#
bx c#
bx P"
bx g"
bx >#
b11100011101000000001000000000000 %
b11100011101000000001000000000000 -
b11100011101000000001000000000000 9
b11100011101000000001000000000000 I
b11100011101000000001000000000000 v
b11100011101000000001000000000000 G"
b11100011101000000001000000000000 D#
b100 #
b100 ,
b100 6
b100 F"
b100 M#
b100 W#
b1 !
b1 2"
1'
b111 )
#30
0'
#35
x["
b0 y"
bx b
b0xxxxxxxxxxxxxxxxxxxxxxx _"
b0xxxxxxxxxxxxxxxxxxxxxxx m"
xt"
xa"
xT"
bx X"
bx z"
bx v"
bx w"
bx x"
x~"
x'#
bx /#
bx ^"
bx ##
bx .#
b100000000000000000000000 %#
b0 )#
b100000000000000000000000 n"
b0 p"
b0 c"
b1 ^
b11111111111111111111111111111111 `"
xZ"
bx ]"
bx d"
xl"
bx s"
b1xxxxxxxxxxxxxxxxxxxxxxx o"
bx q"
x"#
bx $#
bx ,#
bx (#
b1xxxxxxxxxxxxxxxxxxxxxxx &#
bx *#
b0 >"
b0 b"
b0 u"
b0 -#
b0 I#
b1xx @
b1xx M
b1xx U
b1xx O"
b1xx f"
1U"
b0 L"
b0 h"
b0 3#
b0 Q#
bx V"
bx W"
bx ?"
bx R"
bx j"
bx }"
b1011 A
b1011 N
b1011 }
b1011 3"
b1011 Q"
b0 0
b0 B
b0 p
b0 #"
b0 8"
b0 R#
0?
b1 >
b1 L
b1 {
b1 $"
b1 4"
b1 H#
1|
b11 0"
b1000 1"
b111 !
b111 2"
1S
b1000 N"
b1000 5#
b1000 O#
b11100011110000000001000011000000 I"
b11100011110000000001000011000000 ;#
b11100011110000000001000011000000 P#
1'
#40
0'
#45
bx y"
bx _"
bx m"
x|"
bx {"
b1xxxxxxxxxxxxxxxxxxxxxxx %#
bx )#
bx +#
x!#
b1xxxxxxxxxxxxxxxxxxxxxxx n"
bx p"
bx r"
xk"
bx c"
xY"
bx >"
bx b"
bx u"
bx -#
bx I#
x\"
bx ^
bx `"
bx @
bx M
bx U
bx O"
bx f"
xU"
bx L"
bx h"
bx 3#
bx Q#
12
b0 A
b0 N
b0 }
b0 3"
b0 Q"
b0 6"
b0 U#
b0 @"
b0 L#
b0 S#
b0 X#
b0 ]#
1q
1D
b0 >
b0 L
b0 {
b0 $"
b0 4"
b0 H#
0|
b1000100000000 0"
b0 1"
b0 N"
b0 5#
b0 O#
b1000 !
b1000 2"
1'
#50
0'
#55
0["
b0 b
0a"
0\"
b0 ^
b10000 X"
1t"
0'#
b1000 /#
b10000001 .#
b10000 ]"
b100 d"
0T"
b100000000000000000000100 z"
b1 y"
b100000000000000000000100 _"
b100000000000000000000100 m"
0|"
b0 {"
b1000000000000000000001000 v"
b100000000000000000000100 w"
b0 x"
b1000000100000000000000000001000 ^"
b1000000100000000000000000001000 ##
0~"
b10000000000000000000100000000000000000000010000 (#
b100000000000000000000100 %#
b100 )#
b10000001 $#
b0 +#
0!#
b100000000000000000000100 n"
b100 p"
b0 r"
0k"
b100 c"
0Y"
b1000 W"
b100 `"
15
0Z"
0l"
b0 s"
b100000000000000000000100 o"
b100 q"
0"#
b0 ,#
b100000000000000000000100 &#
b100 *#
b0 @
b0 M
b0 U
b0 O"
b0 f"
0U"
b1000 L"
b1000 h"
b1000 3#
b1000 Q#
b10000 V"
b100 >"
b100 b"
b100 u"
b100 -#
b100 I#
1F
02
b100 ?"
b100 R"
b100 j"
b100 }"
0q
1z
0D
1;
b10 0
b10 B
b10 p
b10 #"
b10 8"
b10 R#
1?
b10 >
b10 L
b10 {
b10 $"
b10 4"
b10 H#
b1000 6"
b1000 U#
b1000 @"
b1000 L#
b1000 S#
b1000 X#
b1000 ]#
b10010101100 0"
b1 1"
b0 !
b0 2"
bx N"
bx 5#
bx O#
1'
#60
0'
#65
b0 C"
b0 <#
b0 `#
b1 E"
b1 Y#
b100000000000000000000110 _"
b100000000000000000000110 m"
b100000000000000000000110 z"
05
b100000 X"
b1000000000000000000001100 v"
b1000000100000000000000000001100 ^"
b1000000100000000000000000001100 ##
b1100 /#
b1100 6"
b1100 U#
b1100 @"
b1100 L#
b1100 S#
b1100 X#
b1100 ]#
0F
b11000000000000000000 H"
b11000000000000000000 e"
b11000000000000000000 2#
b11000000000000000000 F#
18
1j
0i
b11100011010000000001010000001111 +
b11100011010000000001010000001111 4
b11100011010000000001010000001111 A"
b11100011010000000001010000001111 9#
b11100011010000000001010000001111 B#
b11100011010000000001010000001111 b#
b100000 ]"
b1000 d"
b100000000000000000001000 o"
b1000 q"
b10000000000000000000110000000000000000000100000 (#
b100000000000000000001000 &#
b1000 *#
b0 @
b0 M
b0 U
b0 O"
b0 f"
0U"
b1100 L"
b1100 h"
b1100 3#
b1100 Q#
0z
0;
b110000000001000011000000 1#
b111100 y
b111100 !"
b1110 t
b1000 &
b1000 .
b1000 =
b1000 J"
b1000 K#
b1000 a#
b100000 V"
b1100 W"
b1000 ?"
b1000 R"
b1000 j"
b1000 }"
b101100 0"
b111 1"
b1000 N"
b1000 5#
b1000 O#
b11100011110000000001000011000000 %
b11100011110000000001000011000000 -
b11100011110000000001000011000000 9
b11100011110000000001000011000000 I
b11100011110000000001000011000000 v
b11100011110000000001000011000000 G"
b11100011110000000001000011000000 D#
b1000 #
b1000 ,
b1000 6
b1000 F"
b1000 M#
b1000 W#
b1 !
b1 2"
1'
#70
0'
#75
b100001100000000000000000 _"
b100001100000000000000000 m"
b100001100000000000000000 z"
b0 X"
b1000011000000000000000000 v"
b100011000000000000000000 w"
b1000000100011000000000000000000 ^"
b1000000100011000000000000000000 ##
b11000000000000000000 /#
b100011000000000000000000 %#
b11000000000000000000 )#
b100011000000000000000000 n"
b11000000000000000000 p"
b11000000000000000000 c"
b11111111111100111111111111111111 `"
b0 ]"
b0 d"
b100000000000000000000000 o"
b0 q"
b10001100000000000000000000000000000000000000000 (#
b100000000000000000000000 &#
b0 *#
b11000000000000000000 >"
b11000000000000000000 b"
b11000000000000000000 u"
b11000000000000000000 -#
b11000000000000000000 I#
b0 V"
b11111111111101000000000000000000 W"
b0 ?"
b0 R"
b0 j"
b0 }"
b1101 A
b1101 N
b1101 }
b1101 3"
b1101 Q"
b0 0
b0 B
b0 p
b0 #"
b0 8"
b0 R#
0?
b1 >
b1 L
b1 {
b1 $"
b1 4"
b1 H#
1|
b11 0"
b1000 1"
b0 @
b0 M
b0 U
b0 O"
b0 f"
0U"
b11000000000000000000 L"
b11000000000000000000 h"
b11000000000000000000 3#
b11000000000000000000 Q#
b111 !
b111 2"
b0 P"
b0 g"
b0 >#
b1100 N"
b1100 5#
b1100 O#
b11100011010000000001010000001111 I"
b11100011010000000001010000001111 ;#
b11100011010000000001010000001111 P#
1'
#80
0'
#85
bx b
xt"
xa"
x["
x'#
bx /#
bx .#
bx ^"
bx ##
x~"
bx w"
bx x"
bx z"
bx y"
bx _"
bx m"
x|"
bx {"
bx v"
bx X"
xT"
bx (#
b1xxxxxxxxxxxxxxxxxxxxxxx %#
bx )#
bx $#
bx +#
x!#
b1xxxxxxxxxxxxxxxxxxxxxxx n"
bx p"
bx r"
xk"
bx ]"
bx c"
xY"
bx ^
bx V"
bx >"
bx b"
bx u"
bx -#
bx I#
x\"
bx `"
bx @
bx M
bx U
bx O"
bx f"
xU"
bx L"
bx h"
bx 3#
bx Q#
bx W"
12
b0 A
b0 N
b0 }
b0 3"
b0 Q"
b11000000000000000000 6"
b11000000000000000000 U#
b11000000000000000000 @"
b11000000000000000000 L#
b11000000000000000000 S#
b11000000000000000000 X#
b11000000000000000000 ]#
1q
1D
b0 >
b0 L
b0 {
b0 $"
b0 4"
b0 H#
0|
b1000100000000 0"
b0 1"
b11000000000000000000 N"
b11000000000000000000 5#
b11000000000000000000 O#
b1000 !
b1000 2"
1'
#90
0'
#95
0["
b0 b
0a"
0\"
b0 ^
1t"
0'#
b1100 /#
b10000001 .#
b1000000100000000000000000001100 ^"
b1000000100000000000000000001100 ##
0~"
b100000000000000000000110 z"
b1 y"
b100000000000000000000110 _"
b100000000000000000000110 m"
0|"
b0 {"
b100000 X"
0T"
b1000000000000000000001100 v"
b100000000000000000000100 w"
b0 x"
b10000000000000000000110000000000000000000100000 (#
b100000000000000000000100 %#
b100 )#
b10000001 $#
b0 +#
0!#
b100000000000000000000100 n"
b100 p"
b0 r"
0k"
b100000 ]"
b100 c"
0Y"
b1100 W"
b100 `"
15
b1000 d"
b100000000000000000001000 o"
b1000 q"
b100000000000000000001000 &#
b1000 *#
b0 @
b0 M
b0 U
b0 O"
b0 f"
0U"
b1100 L"
b1100 h"
b1100 3#
b1100 Q#
b100000 V"
b100 >"
b100 b"
b100 u"
b100 -#
b100 I#
1F
02
b1000 ?"
b1000 R"
b1000 j"
b1000 }"
0q
1z
0D
1;
b10 0
b10 B
b10 p
b10 #"
b10 8"
b10 R#
1?
b10 >
b10 L
b10 {
b10 $"
b10 4"
b10 H#
b1100 6"
b1100 U#
b1100 @"
b1100 L#
b1100 S#
b1100 X#
b1100 ]#
b10010101100 0"
b1 1"
b11000000000000000000 C"
b11000000000000000000 <#
b11000000000000000000 `#
b0 !
b0 2"
bx N"
bx 5#
bx O#
1'
#100
0'
#105
b10000 B"
b10000 ?#
b10000 _#
b100000000000000000001000 _"
b100000000000000000001000 m"
b1111 D"
b1111 Z#
b100000000000000000001000 z"
05
b110000 X"
b1000000000000000000010000 v"
b1000000100000000000000000010000 ^"
b1000000100000000000000000010000 ##
b10000 /#
0F
b10000 6"
b10000 U#
b10000 @"
b10000 L#
b10000 S#
b10000 X#
b10000 ]#
b1000000111100000000000000000000 H"
b1000000111100000000000000000000 e"
b1000000111100000000000000000000 2#
b1000000111100000000000000000000 F#
08
0j
17
1k
b11100011101000000010000000000000 +
b11100011101000000010000000000000 4
b11100011101000000010000000000000 A"
b11100011101000000010000000000000 9#
b11100011101000000010000000000000 B#
b11100011101000000010000000000000 b#
b110000 ]"
b1100 d"
b100000000000000000001100 o"
b1100 q"
b10000000000000000001000000000000000000000110000 (#
b100000000000000000001100 &#
b1100 *#
0z
0;
b0 @
b0 M
b0 U
b0 O"
b0 f"
0U"
b10000 L"
b10000 h"
b10000 3#
b10000 Q#
b10000000001010000001111 1#
b110100 y
b110100 !"
b1010 t
b1100 &
b1100 .
b1100 =
b1100 J"
b1100 K#
b1100 a#
b110000 V"
b10000 W"
b1100 ?"
b1100 R"
b1100 j"
b1100 }"
b101100 0"
b111 1"
b1100 N"
b1100 5#
b1100 O#
b11000000000000000000 P"
b11000000000000000000 g"
b11000000000000000000 >#
b11100011010000000001010000001111 %
b11100011010000000001010000001111 -
b11100011010000000001010000001111 9
b11100011010000000001010000001111 I
b11100011010000000001010000001111 v
b11100011010000000001010000001111 G"
b11100011010000000001010000001111 D#
b1100 #
b1100 ,
b1100 6
b1100 F"
b1100 M#
b1100 W#
b1 !
b1 2"
1'
#110
0'
