dump.vcd
$date
	Thu Jul 10 12:51:01 2025
$end
$version
	Icarus Verilog
$end
$timescale
	1s
$end
$scope module testbench $end
$var wire 4 ! state [3:0] $end
$var wire 32 " WriteData [31:0] $end
$var wire 32 # PC [31:0] $end
$var wire 1 $ MemWrite $end
$var wire 32 % Instr [31:0] $end
$var wire 32 & Adr [31:0] $end
$var reg 1 ' clk $end
$var reg 1 ( reset $end
$var integer 32 ) i [31:0] $end
$scope module dut $end
$var wire 1 ' clk $end
$var wire 1 ( reset $end
$var wire 32 * WriteData [31:0] $end
$var wire 32 + ReadData [31:0] $end
$var wire 32 , PC [31:0] $end
$var wire 1 $ MemWrite $end
$var wire 32 - Instr [31:0] $end
$var wire 32 . Adr [31:0] $end
$scope module arm $end
$var wire 1 ' clk $end
$var wire 1 ( reset $end
$var wire 32 / WriteData [31:0] $end
$var wire 2 0 ResultSrc [1:0] $end
$var wire 1 1 RegWriteHi $end
$var wire 1 2 RegWrite $end
$var wire 2 3 RegSrc [1:0] $end
$var wire 32 4 ReadData [31:0] $end
$var wire 1 5 PCWrite $end
$var wire 32 6 PC [31:0] $end
$var wire 1 $ MemWrite $end
$var wire 1 7 IsMovt $end
$var wire 1 8 IsMovm $end
$var wire 32 9 Instr [31:0] $end
$var wire 2 : ImmSrc [1:0] $end
$var wire 1 ; IRWrite $end
$var wire 1 < AdrSrc $end
$var wire 32 = Adr [31:0] $end
$var wire 2 > ALUSrcB [1:0] $end
$var wire 1 ? ALUSrcA $end
$var wire 4 @ ALUFlags [3:0] $end
$var wire 4 A ALUControl [3:0] $end
$scope module c $end
$var wire 1 ' clk $end
$var wire 1 ( reset $end
$var wire 2 B ResultSrc [1:0] $end
$var wire 1 1 RegWriteHi $end
$var wire 1 2 RegWrite $end
$var wire 1 C RegWHi $end
$var wire 1 D RegW $end
$var wire 2 E RegSrc [1:0] $end
$var wire 1 5 PCWrite $end
$var wire 1 F PCS $end
$var wire 1 G NextPC $end
$var wire 1 $ MemWrite $end
$var wire 1 H MemW $end
$var wire 1 7 IsMovt $end
$var wire 1 8 IsMovm $end
$var wire 32 I Instr [31:0] $end
$var wire 2 J ImmSrc [1:0] $end
$var wire 1 ; IRWrite $end
$var wire 2 K FlagW [1:0] $end
$var wire 1 < AdrSrc $end
$var wire 2 L ALUSrcB [1:0] $end
$var wire 1 ? ALUSrcA $end
$var wire 4 M ALUFlags [3:0] $end
$var wire 4 N ALUControl [3:0] $end
$scope module cl $end
$var wire 4 O Cond [3:0] $end
$var wire 2 P FlagWrite [1:0] $end
$var wire 1 $ MemWrite $end
$var wire 1 5 PCWrite $end
$var wire 1 2 RegWrite $end
$var wire 1 1 RegWriteHi $end
$var wire 1 ' clk $end
$var wire 1 ( reset $end
$var wire 1 C RegWHi $end
$var wire 1 D RegW $end
$var wire 1 F PCS $end
$var wire 1 G NextPC $end
$var wire 1 H MemW $end
$var wire 4 Q Flags [3:0] $end
$var wire 2 R FlagW [1:0] $end
$var wire 1 S CondExNext $end
$var wire 1 T CondEx $end
$var wire 4 U ALUFlags [3:0] $end
$scope module condchk $end
$var wire 4 V Cond [3:0] $end
$var wire 4 W Flags [3:0] $end
$var wire 1 X ge $end
$var wire 1 Y zero $end
$var wire 1 Z overflow $end
$var wire 1 [ neg $end
$var wire 1 \ carry $end
$var reg 1 T CondEx $end
$upscope $end
$scope module condreg $end
$var wire 1 ' clk $end
$var wire 1 T d $end
$var wire 1 ( reset $end
$var parameter 32 ] WIDTH $end
$var reg 1 S q $end
$upscope $end
$scope module flagreg_hi $end
$var wire 1 ' clk $end
$var wire 2 ^ d [1:0] $end
$var wire 1 _ en $end
$var wire 1 ( reset $end
$var parameter 32 ` WIDTH $end
$var reg 2 a q [1:0] $end
$upscope $end
$scope module flagreg_lo $end
$var wire 1 ' clk $end
$var wire 2 b d [1:0] $end
$var wire 1 c en $end
$var wire 1 ( reset $end
$var parameter 32 d WIDTH $end
$var reg 2 e q [1:0] $end
$upscope $end
$upscope $end
$scope module dec $end
$var wire 1 8 IsMovm $end
$var wire 1 7 IsMovt $end
$var wire 1 F PCS $end
$var wire 1 D RegW $end
$var wire 1 C RegWHi $end
$var wire 1 ' clk $end
$var wire 1 f is_cmp $end
$var wire 1 g is_custom_float $end
$var wire 1 h is_fadds $end
$var wire 1 i is_fmuls $end
$var wire 1 j is_mov $end
$var wire 1 k is_movm $end
$var wire 1 l is_movt $end
$var wire 1 m is_smul $end
$var wire 1 n is_umul $end
$var wire 1 o mul_long $end
$var wire 1 ( reset $end
$var wire 1 p S_flag $end
$var wire 2 q ResultSrc [1:0] $end
$var wire 1 r RegW_fsm $end
$var wire 1 s RegWHi_int $end
$var wire 2 t RegSrc [1:0] $end
$var wire 4 u Rd [3:0] $end
$var wire 4 v Opcode [3:0] $end
$var wire 2 w Op [1:0] $end
$var wire 1 G NextPC $end
$var wire 1 H MemW $end
$var wire 32 x Instr [31:0] $end
$var wire 2 y ImmSrc [1:0] $end
$var wire 1 z I_flag $end
$var wire 1 ; IRWrite $end
$var wire 6 { Funct [5:0] $end
$var wire 1 | Branch $end
$var wire 1 < AdrSrc $end
$var wire 2 } ALUSrcB [1:0] $end
$var wire 1 ? ALUSrcA $end
$var wire 1 ~ ALUOp $end
$var reg 4 !" ALUControl [3:0] $end
$var reg 2 "" FlagW [1:0] $end
$scope module fsm $end
$var wire 6 #" Funct [5:0] $end
$var wire 2 $" Op [1:0] $end
$var wire 1 ' clk $end
$var wire 1 ( reset $end
$var wire 2 %" ResultSrc [1:0] $end
$var wire 1 s RegWHi $end
$var wire 1 r RegW $end
$var wire 1 G NextPC $end
$var wire 1 H MemW $end
$var wire 1 ; IRWrite $end
$var wire 1 | Branch $end
$var wire 1 < AdrSrc $end
$var wire 2 &" ALUSrcB [1:0] $end
$var wire 1 ? ALUSrcA $end
$var wire 1 ~ ALUOp $end
$var parameter 4 '" ALUWB $end
$var parameter 4 (" BRANCH $end
$var parameter 4 )" DECODE $end
$var parameter 4 *" EXECUTEI $end
$var parameter 4 +" EXECUTER $end
$var parameter 4 ," FETCH $end
$var parameter 4 -" MEMADR $end
$var parameter 4 ." MEMRD $end
$var parameter 4 /" MEMWB $end
$var parameter 4 0" MEMWR $end
$var parameter 4 1" UNKNOWN $end
$var reg 13 2" controls [12:0] $end
$var reg 4 3" nextstate [3:0] $end
$var reg 4 4" state [3:0] $end
$upscope $end
$upscope $end
$upscope $end
$scope module dp $end
$var wire 4 5" ALUControl [3:0] $end
$var wire 1 ? ALUSrcA $end
$var wire 2 6" ALUSrcB [1:0] $end
$var wire 1 < AdrSrc $end
$var wire 1 ; IRWrite $end
$var wire 2 7" ImmSrc [1:0] $end
$var wire 1 8 IsMovm $end
$var wire 1 7 IsMovt $end
$var wire 1 $ MemWrite $end
$var wire 32 8" PCNext [31:0] $end
$var wire 1 5 PCWrite $end
$var wire 2 9" RegSrc [1:0] $end
$var wire 1 2 RegWrite $end
$var wire 1 1 RegWriteHi $end
$var wire 2 :" ResultSrc [1:0] $end
$var wire 1 ' clk $end
$var wire 1 ( reset $end
$var wire 1 ;" mul_long $end
$var wire 1 <" isMul $end
$var wire 32 =" WriteData [31:0] $end
$var wire 4 >" WA4 [3:0] $end
$var wire 4 ?" WA3 [3:0] $end
$var wire 32 @" SrcB [31:0] $end
$var wire 32 A" SrcA [31:0] $end
$var wire 32 B" Result [31:0] $end
$var wire 32 C" ReadData [31:0] $end
$var wire 32 D" RD2 [31:0] $end
$var wire 32 E" RD1 [31:0] $end
$var wire 4 F" RA2 [3:0] $end
$var wire 4 G" RA1 [3:0] $end
$var wire 32 H" PC [31:0] $end
$var wire 32 I" Instr [31:0] $end
$var wire 32 J" ExtImm [31:0] $end
$var wire 32 K" Data [31:0] $end
$var wire 32 L" Adr [31:0] $end
$var wire 32 M" ALUResultHi [31:0] $end
$var wire 32 N" ALUResult [31:0] $end
$var wire 32 O" ALUOutHi [31:0] $end
$var wire 32 P" ALUOut [31:0] $end
$var wire 4 Q" ALUFlags [3:0] $end
$var wire 32 R" A [31:0] $end
$scope module alu $end
$var wire 4 S" ALUControl [3:0] $end
$var wire 32 T" a [31:0] $end
$var wire 1 U" is_logic $end
$var wire 1 V" resultado_signo $end
$var wire 1 W" zero $end
$var wire 64 X" umul_result [63:0] $end
$var wire 33 Y" sum [32:0] $end
$var wire 64 Z" smul_result [63:0] $end
$var wire 1 [" signo_b $end
$var wire 1 \" signo_a $end
$var wire 1 ]" overflow $end
$var wire 1 ^" neg $end
$var wire 64 _" mul_unsigned [63:0] $end
$var wire 32 `" float_mul_result [31:0] $end
$var wire 32 a" float_add_result [31:0] $end
$var wire 32 b" condinvb [31:0] $end
$var wire 1 c" carry $end
$var wire 32 d" b [31:0] $end
$var wire 32 e" abs_b [31:0] $end
$var wire 32 f" abs_a [31:0] $end
$var wire 32 g" ExtImm [31:0] $end
$var wire 4 h" ALUFlags [3:0] $end
$var wire 32 i" A [31:0] $end
$var reg 32 j" Result [31:0] $end
$var reg 32 k" ResultHi [31:0] $end
$scope module fadd_inst $end
$var wire 32 l" a [31:0] $end
$var wire 1 m" sign_b $end
$var wire 1 n" sign_a $end
$var wire 32 o" result [31:0] $end
$var wire 24 p" norm_mant_b [23:0] $end
$var wire 24 q" norm_mant_a [23:0] $end
$var wire 23 r" mant_b [22:0] $end
$var wire 23 s" mant_a [22:0] $end
$var wire 8 t" exp_b [7:0] $end
$var wire 8 u" exp_a [7:0] $end
$var wire 1 v" carry $end
$var wire 32 w" b [31:0] $end
$var reg 25 x" add_result [24:0] $end
$var reg 24 y" aligned_mant [23:0] $end
$var reg 8 z" exp_diff [7:0] $end
$var reg 8 {" normalized_exp [7:0] $end
$var reg 24 |" normalized_mant_full [23:0] $end
$var reg 8 }" pre_norm_exp [7:0] $end
$var reg 1 ~" result_sign $end
$upscope $end
$scope module fmul_inst $end
$var wire 32 !# a [31:0] $end
$var wire 1 "# result_sign $end
$var wire 1 ## sign_b $end
$var wire 1 $# sign_a $end
$var wire 32 %# result [31:0] $end
$var wire 8 &# pre_norm_exp [7:0] $end
$var wire 24 '# norm_mant_b [23:0] $end
$var wire 24 (# norm_mant_a [23:0] $end
$var wire 1 )# needs_norm $end
$var wire 48 *# mult_mant_result [47:0] $end
$var wire 23 +# mant_b [22:0] $end
$var wire 23 ,# mant_a [22:0] $end
$var wire 8 -# exp_b [7:0] $end
$var wire 8 .# exp_a [7:0] $end
$var wire 32 /# b [31:0] $end
$var reg 8 0# normalized_exp [7:0] $end
$var reg 23 1# normalized_mant [22:0] $end
$upscope $end
$upscope $end
$scope module ext $end
$var wire 2 2# ImmSrc [1:0] $end
$var wire 24 3# Instr [23:0] $end
$var wire 1 8 IsMovm $end
$var wire 1 7 IsMovt $end
$var reg 32 4# ExtImm [31:0] $end
$upscope $end
$scope module ffALUOut $end
$var wire 1 ' clk $end
$var wire 32 5# d [31:0] $end
$var wire 1 ( reset $end
$var parameter 32 6# WIDTH $end
$var reg 32 7# q [31:0] $end
$upscope $end
$scope module ffALUOutHi $end
$var wire 1 ' clk $end
$var wire 32 8# d [31:0] $end
$var wire 1 ( reset $end
$var parameter 32 9# WIDTH $end
$var reg 32 :# q [31:0] $end
$upscope $end
$scope module ffData $end
$var wire 1 ' clk $end
$var wire 1 ( reset $end
$var wire 32 ;# d [31:0] $end
$var parameter 32 <# WIDTH $end
$var reg 32 =# q [31:0] $end
$upscope $end
$scope module ffRD1 $end
$var wire 1 ' clk $end
$var wire 1 ( reset $end
$var wire 32 ># d [31:0] $end
$var parameter 32 ?# WIDTH $end
$var reg 32 @# q [31:0] $end
$upscope $end
$scope module ffRD2 $end
$var wire 1 ' clk $end
$var wire 1 ( reset $end
$var wire 32 A# d [31:0] $end
$var parameter 32 B# WIDTH $end
$var reg 32 C# q [31:0] $end
$upscope $end
$scope module irreg $end
$var wire 1 ' clk $end
$var wire 1 ; en $end
$var wire 1 ( reset $end
$var wire 32 D# d [31:0] $end
$var parameter 32 E# WIDTH $end
$var reg 32 F# q [31:0] $end
$upscope $end
$scope module muxALUSrcB $end
$var wire 32 G# d0 [31:0] $end
$var wire 32 H# d1 [31:0] $end
$var wire 32 I# d2 [31:0] $end
$var wire 2 J# s [1:0] $end
$var wire 32 K# y [31:0] $end
$var parameter 32 L# WIDTH $end
$upscope $end
$scope module muxAdrSrc $end
$var wire 1 < s $end
$var wire 32 M# y [31:0] $end
$var wire 32 N# d1 [31:0] $end
$var wire 32 O# d0 [31:0] $end
$var parameter 32 P# WIDTH $end
$upscope $end
$scope module muxResultSrc $end
$var wire 32 Q# d0 [31:0] $end
$var wire 32 R# d1 [31:0] $end
$var wire 32 S# d2 [31:0] $end
$var wire 2 T# s [1:0] $end
$var wire 32 U# y [31:0] $end
$var parameter 32 V# WIDTH $end
$upscope $end
$scope module op_sel $end
$var wire 32 W# Instr [31:0] $end
$var wire 1 8 IsMovm $end
$var wire 1 7 IsMovt $end
$var wire 2 X# RegSrc [1:0] $end
$var wire 1 <" isMul $end
$var wire 1 ;" mul_long $end
$var wire 4 Y# WA4 [3:0] $end
$var wire 4 Z# WA3 [3:0] $end
$var wire 4 [# RA2 [3:0] $end
$var wire 4 \# RA1 [3:0] $end
$upscope $end
$scope module pcreg $end
$var wire 1 ' clk $end
$var wire 32 ]# d [31:0] $end
$var wire 1 5 en $end
$var wire 1 ( reset $end
$var parameter 32 ^# WIDTH $end
$var reg 32 _# q [31:0] $end
$upscope $end
$scope module rf $end
$var wire 1 ' clk $end
$var wire 32 `# r15 [31:0] $end
$var wire 4 a# ra1 [3:0] $end
$var wire 4 b# ra2 [3:0] $end
$var wire 4 c# wa3 [3:0] $end
$var wire 4 d# wa4 [3:0] $end
$var wire 32 e# wd3 [31:0] $end
$var wire 32 f# wd4 [31:0] $end
$var wire 1 2 we3 $end
$var wire 1 1 we4 $end
$var wire 32 g# rd2 [31:0] $end
$var wire 32 h# rd1 [31:0] $end
$upscope $end
$upscope $end
$upscope $end
$scope module mem $end
$var wire 32 i# a [31:0] $end
$var wire 1 ' clk $end
$var wire 32 j# rd [31:0] $end
$var wire 32 k# wd [31:0] $end
$var wire 1 $ we $end
$upscope $end
$upscope $end
$upscope $end
$enddefinitions $end
$comment Show the parameter values. $end
$dumpall
b100000 ^#
b100000 V#
b100000 P#
b100000 L#
b100000 E#
b100000 B#
b100000 ?#
b100000 <#
b100000 9#
b100000 6#
b1010 1"
b101 0"
b100 /"
b11 ."
b10 -"
b0 ,"
b110 +"
b111 *"
b1 )"
b1001 ("
b1000 '"
b10 d
b10 `
b1 ]
$end
#0
$dumpvars
b0 k#
b11100011101000000001111111111111 j#
b0 i#
bx h#
bx g#
b0 f#
b100 e#
b0 d#
b0 c#
b0 b#
b0 a#
b100 `#
b0 _#
b100 ]#
b0 \#
b0 [#
b0 Z#
b0 Y#
b0 X#
b0 W#
b100 U#
b10 T#
b100 S#
b0 R#
b0 Q#
b0 O#
b100 N#
b0 M#
b100 K#
b10 J#
b100 I#
b0 H#
b0 G#
b0 F#
b11100011101000000001111111111111 D#
b0 C#
bx A#
b0 @#
bx >#
b0 =#
b11100011101000000001111111111111 ;#
b0 :#
b0 8#
b0 7#
b100 5#
b0 4#
b0 3#
b0 2#
b100 1#
b10000001 0#
b100 /#
b0 .#
b0 -#
b0 ,#
b100 +#
b10000000000000000000010000000000000000000000000 *#
0)#
b100000000000000000000000 (#
b100000000000000000000100 '#
b10000001 &#
b1000000100000000000000000000100 %#
0$#
0##
0"#
b0 !#
0~"
b0 }"
b100000000000000000000010 |"
b1 {"
b0 z"
b100000000000000000000100 y"
b1000000000000000000000100 x"
b100 w"
1v"
b0 u"
b0 t"
b0 s"
b100 r"
b100000000000000000000000 q"
b100000000000000000000100 p"
b100000000000000000000010 o"
0n"
0m"
b0 l"
b0 k"
b100 j"
b0 i"
b0 h"
b0 g"
b0 f"
b100 e"
b100 d"
0c"
b100 b"
b100000000000000000000010 a"
b1000000100000000000000000000100 `"
b0 _"
0^"
0]"
0\"
0["
b0 Z"
b100 Y"
b0 X"
0W"
0V"
0U"
b0 T"
b0 S"
b0 R"
b0 Q"
b0 P"
b0 O"
b100 N"
b0 M"
b0 L"
b0 K"
b0 J"
b0 I"
b0 H"
b0 G"
b0 F"
bx E"
bx D"
b11100011101000000001111111111111 C"
b100 B"
b0 A"
b100 @"
b0 ?"
b0 >"
b0 ="
0<"
0;"
b10 :"
b0 9"
b100 8"
b0 7"
b10 6"
b0 5"
b0 4"
b1 3"
b10010101100 2"
b10 &"
b10 %"
b0 $"
b0 #"
b0 ""
b0 !"
0~
b10 }
1|
b0 {
0z
b0 y
b0 x
b0 w
b0 v
b0 u
b0 t
0s
0r
b10 q
0p
0o
0n
0m
0l
0k
0j
0i
0h
0g
0f
b0 e
0c
b0 b
b0 a
0_
b0 ^
0\
0[
0Z
0Y
1X
b0 W
b0 V
b0 U
0T
0S
b0 R
b0 Q
b0 P
b0 O
b0 N
b0 M
b10 L
b0 K
b0 J
b0 I
0H
0G
1F
b0 E
0D
0C
b10 B
b0 A
b0 @
1?
b10 >
b0 =
0<
1;
b0 :
b0 9
08
07
b0 6
15
b11100011101000000001111111111111 4
b0 3
02
01
b10 0
b0 /
b0 .
b0 -
b0 ,
b11100011101000000001111111111111 +
b0 *
bx )
1(
0'
b0 &
b0 %
0$
b0 #
b0 "
b0 !
$end
#5
1'
#10
0'
#15
1'
#20
0'
#22
0(
#25
b1000 D"
b1000 A#
b1000 g#
b11 :
b11 J
b11 y
b11 7"
b11 2#
b100000000000000000000100 a"
b100000000000000000000100 o"
b1111 F"
b1111 [#
b1111 b#
b100000000000000000000100 |"
05
b10000 Z"
b1000000000000000000001000 x"
b1000000100000000000000000001000 `"
b1000000100000000000000000001000 %#
b1000 1#
0F
b1000 8"
b1000 ]#
b1000 B"
b1000 N#
b1000 U#
b1000 `#
b1000 e#
b111111111111 J"
b111111111111 g"
b111111111111 4#
b111111111111 H#
1j
1T
b11100011110000000001000011111111 +
b11100011110000000001000011111111 4
b11100011110000000001000011111111 C"
b11100011110000000001000011111111 ;#
b11100011110000000001000011111111 D#
b11100011110000000001000011111111 j#
b10000 _"
b100 f"
b100000000000000000000100 q"
b100 s"
b10000000000000000000100000000000000000000010000 *#
b100000000000000000000100 (#
b100 ,#
0|
0;
b1000 N"
b1000 j"
b1000 5#
b1000 S#
b1 ?"
b1 Z#
b1 c#
b101000000001111111111111 3#
b111010 {
b111010 #"
b1 u
b1101 v
1z
b1110 O
b1110 V
b100 &
b100 .
b100 =
b100 L"
b100 M#
b100 i#
b10000 X"
b1000 Y"
b100 A"
b100 T"
b100 l"
b100 !#
b101100 2"
b111 3"
b11100011101000000001111111111111 K"
b11100011101000000001111111111111 =#
b11100011101000000001111111111111 R#
b100 P"
b100 7#
b100 Q#
bx "
bx *
bx /
bx ="
bx C#
bx G#
bx k#
bx R"
bx i"
bx @#
b11100011101000000001111111111111 %
b11100011101000000001111111111111 -
b11100011101000000001111111111111 9
b11100011101000000001111111111111 I
b11100011101000000001111111111111 x
b11100011101000000001111111111111 I"
b11100011101000000001111111111111 F#
b11100011101000000001111111111111 W#
b100 #
b100 ,
b100 6
b100 H"
b100 O#
b100 _#
b1 !
b1 4"
1'
b111 )
#30
0'
#35
x]"
b0 {"
bx b
b0xxxxxxxxxxxxxxxxxxxxxxx a"
b0xxxxxxxxxxxxxxxxxxxxxxx o"
xv"
b0xx @
b0xx M
b0xx U
b0xx Q"
b0xx h"
xc"
xV"
bx Z"
bx |"
bx x"
bx y"
bx z"
x"#
x)#
bx 1#
bx `"
bx %#
bx 0#
b100000000000111111111111 '#
b111111111111 +#
b100000000000111111111111 p"
b111111111111 r"
b111111111111 e"
b11111111111111111111000000000000 b"
x\"
bx _"
bx f"
xn"
bx u"
b1xxxxxxxxxxxxxxxxxxxxxxx q"
bx s"
x$#
bx &#
bx .#
bx *#
b1xxxxxxxxxxxxxxxxxxxxxxx (#
bx ,#
b111111111111 @"
b111111111111 d"
b111111111111 w"
b111111111111 /#
b111111111111 K#
b111111111111 N"
b111111111111 j"
b111111111111 5#
b111111111111 S#
bx X"
bx Y"
bx A"
bx T"
bx l"
bx !#
b1011 A
b1011 N
b1011 !"
b1011 5"
b1011 S"
b0 0
b0 B
b0 q
b0 %"
b0 :"
b0 T#
0?
b1 >
b1 L
b1 }
b1 &"
b1 6"
b1 J#
1~
b11 2"
b1000 3"
b111 !
b111 4"
1S
b1000 "
b1000 *
b1000 /
b1000 ="
b1000 C#
b1000 G#
b1000 k#
b1000 P"
b1000 7#
b1000 Q#
b11100011110000000001000011111111 K"
b11100011110000000001000011111111 =#
b11100011110000000001000011111111 R#
1'
#40
0'
#45
b100000000000000000001000 '#
b1000 +#
b100000000000000000001000 p"
b1000 r"
b1000 e"
bx ^
b1000 @"
b1000 d"
b1000 w"
b1000 /#
b1000 K#
x^"
bx @
bx M
bx U
bx Q"
bx h"
xW"
b1000 b"
12
bx N"
bx j"
bx 5#
bx S#
b111111111111 D"
b111111111111 A#
b111111111111 g#
1D
b0 A
b0 N
b0 !"
b0 5"
b0 S"
b111111111111 8"
b111111111111 ]#
b111111111111 B"
b111111111111 N#
b111111111111 U#
b111111111111 `#
b111111111111 e#
1s
1r
b0 >
b0 L
b0 }
b0 &"
b0 6"
b0 J#
0~
b1000100000000 2"
b0 3"
b111111111111 P"
b111111111111 7#
b111111111111 Q#
b1000 !
b1000 4"
1'
#50
0'
#55
0]"
b1 {"
b0 b
b10000 Z"
b100000000000000000000100 a"
b100000000000000000000100 o"
1v"
b0 ^
0c"
b10000 _"
b100 f"
0V"
b100000000000000000000100 |"
b1000000000000000000001000 x"
b100000000000000000000100 y"
b0 z"
0"#
0)#
b1000 1#
b1000000100000000000000000001000 `"
b1000000100000000000000000001000 %#
b10000001 0#
0^"
b0 @
b0 M
b0 U
b0 Q"
b0 h"
0W"
15
02
0\"
0n"
b0 u"
b100000000000000000000100 q"
b100 s"
0$#
b10000001 &#
b0 .#
b10000000000000000000100000000000000000000010000 *#
b100000000000000000000100 (#
b100 ,#
1F
0D
b10000 X"
b1000 Y"
b100 A"
b100 T"
b100 l"
b100 !#
b100000000000000000000100 '#
b100 +#
b100000000000000000000100 p"
b100 r"
b100 e"
b100 b"
b1000 N"
b1000 j"
b1000 5#
b1000 S#
b1000 D"
b1000 A#
b1000 g#
0s
1|
0r
1;
b10 0
b10 B
b10 q
b10 %"
b10 :"
b10 T#
1?
b10 >
b10 L
b10 }
b10 &"
b10 6"
b10 J#
b100 @"
b100 d"
b100 w"
b100 /#
b100 K#
b1000 8"
b1000 ]#
b1000 B"
b1000 N#
b1000 U#
b1000 `#
b1000 e#
b10010101100 2"
b1 3"
b0 !
b0 4"
b111111111111 "
b111111111111 *
b111111111111 /
b111111111111 ="
b111111111111 C#
b111111111111 G#
b111111111111 k#
bx P"
bx 7#
bx Q#
1'
#60
0'
#65
b111111111111 E"
b111111111111 >#
b111111111111 h#
b1 G"
b1 \#
b1 a#
b100000000000000000000110 a"
b100000000000000000000110 o"
b100000000000000000000110 |"
b1100 D"
b1100 A#
b1100 g#
05
b100000 Z"
b1000000000000000000001100 x"
b1000000100000000000000000001100 `"
b1000000100000000000000000001100 %#
b1100 1#
b1100 8"
b1100 ]#
b1100 B"
b1100 N#
b1100 U#
b1100 `#
b1100 e#
0F
b11111111000000000000 J"
b11111111000000000000 g"
b11111111000000000000 4#
b11111111000000000000 H#
18
1k
0j
b11100011010000000001111111111111 +
b11100011010000000001111111111111 4
b11100011010000000001111111111111 C"
b11100011010000000001111111111111 ;#
b11100011010000000001111111111111 D#
b11100011010000000001111111111111 j#
b100000 _"
b1000 f"
b100000000000000000001000 q"
b1000 s"
b10000000000000000000110000000000000000000100000 *#
b100000000000000000001000 (#
b1000 ,#
b1100 N"
b1100 j"
b1100 5#
b1100 S#
0|
0;
b110000000001000011111111 3#
b111100 {
b111100 #"
b1110 v
b1000 &
b1000 .
b1000 =
b1000 L"
b1000 M#
b1000 i#
b100000 X"
b1100 Y"
b1000 A"
b1000 T"
b1000 l"
b1000 !#
b101100 2"
b111 3"
b1000 P"
b1000 7#
b1000 Q#
b1000 "
b1000 *
b1000 /
b1000 ="
b1000 C#
b1000 G#
b1000 k#
b11100011110000000001000011111111 %
b11100011110000000001000011111111 -
b11100011110000000001000011111111 9
b11100011110000000001000011111111 I
b11100011110000000001000011111111 x
b11100011110000000001000011111111 I"
b11100011110000000001000011111111 F#
b11100011110000000001000011111111 W#
b1000 #
b1000 ,
b1000 6
b1000 H"
b1000 O#
b1000 _#
b1 !
b1 4"
1'
#70
0'
#75
b0 b
b100001111111111111111111 a"
b100001111111111111111111 o"
b0 @
b0 M
b0 U
b0 Q"
b0 h"
0c"
b100001111111111111111111 |"
b11111110111100000001000000000000 Z"
b1000011111111111111111111 x"
b100011111111000000000000 y"
b1000000100100000000000111111100 `"
b1000000100100000000000111111100 %#
b100000000000111111100 1#
b100011111111000000000000 '#
b11111111000000000000 +#
b100011111111000000000000 p"
b11111111000000000000 r"
b11111111000000000000 e"
b11111111111100000000111111111111 b"
b11111110111100000001000000000000 _"
b111111111111 f"
b100000000000111111111111 q"
b111111111111 s"
b10010000000000011111110011100000001000000000000 *#
b100000000000111111111111 (#
b111111111111 ,#
b11111111000000000000 @"
b11111111000000000000 d"
b11111111000000000000 w"
b11111111000000000000 /#
b11111111000000000000 K#
b11111110111100000001000000000000 X"
b11111111111100000001111111111111 Y"
b111111111111 A"
b111111111111 T"
b111111111111 l"
b111111111111 !#
b1101 A
b1101 N
b1101 !"
b1101 5"
b1101 S"
b0 0
b0 B
b0 q
b0 %"
b0 :"
b0 T#
0?
b1 >
b1 L
b1 }
b1 &"
b1 6"
b1 J#
1~
b11 2"
b1000 3"
b11111111111111111111 N"
b11111111111111111111 j"
b11111111111111111111 5#
b11111111111111111111 S#
b111 !
b111 4"
b111111111111 R"
b111111111111 i"
b111111111111 @#
b1100 "
b1100 *
b1100 /
b1100 ="
b1100 C#
b1100 G#
b1100 k#
b1100 P"
b1100 7#
b1100 Q#
b11100011010000000001111111111111 K"
b11100011010000000001111111111111 =#
b11100011010000000001111111111111 R#
1'
#80
0'
#85
b100000000000100000000101 a"
b100000000000100000000101 o"
b0 b
b100000000000100000000101 |"
0]"
b1000000100000000001000000001011 `"
b1000000100000000001000000001011 %#
b1000000001011 1#
b1000000000001000000001011 x"
b100000000000000000001100 y"
b1011111111110100 Z"
b10000000000100000000101100000001011111111110100 *#
b100000000000000000001100 '#
b1100 +#
b100000000000000000001100 p"
b1100 r"
b1011111111110100 _"
b1100 e"
b0 ^
b1011111111110100 X"
b1100 @"
b1100 d"
b1100 w"
b1100 /#
b1100 K#
b0 @
b0 M
b0 U
b0 Q"
b0 h"
0^"
b1100 b"
12
b1000000001011 N"
b1000000001011 j"
b1000000001011 5#
b1000000001011 S#
b1000000001011 Y"
b11111111111111111111 D"
b11111111111111111111 A#
b11111111111111111111 g#
1D
b0 A
b0 N
b0 !"
b0 5"
b0 S"
b11111111111111111111 8"
b11111111111111111111 ]#
b11111111111111111111 B"
b11111111111111111111 N#
b11111111111111111111 U#
b11111111111111111111 `#
b11111111111111111111 e#
1s
1r
b0 >
b0 L
b0 }
b0 &"
b0 6"
b0 J#
0~
b1000100000000 2"
b0 3"
b11111111111111111111 P"
b11111111111111111111 7#
b11111111111111111111 Q#
b1000 !
b1000 4"
1'
#90
0'
#95
b100000000000000000000110 a"
b100000000000000000000110 o"
b100000000000000000000110 |"
15
02
b1000 f"
b100000000000000000001000 q"
b1000 s"
b100000000000000000001000 (#
b1000 ,#
b1000000100000000000000000001100 `"
b1000000100000000000000000001100 %#
b1100 1#
b1000000000000000000001100 x"
b100000000000000000000100 y"
b100000 Z"
1F
0D
b1000 A"
b1000 T"
b1000 l"
b1000 !#
b10000000000000000000110000000000000000000100000 *#
b100000000000000000000100 '#
b100 +#
b100000000000000000000100 p"
b100 r"
b100000 _"
b100 e"
b1100 Y"
b100 b"
b1100 N"
b1100 j"
b1100 5#
b1100 S#
b1100 D"
b1100 A#
b1100 g#
0s
1|
0r
1;
b10 0
b10 B
b10 q
b10 %"
b10 :"
b10 T#
1?
b10 >
b10 L
b10 }
b10 &"
b10 6"
b10 J#
b100000 X"
b100 @"
b100 d"
b100 w"
b100 /#
b100 K#
b1100 8"
b1100 ]#
b1100 B"
b1100 N#
b1100 U#
b1100 `#
b1100 e#
b10010101100 2"
b1 3"
b11111111111111111111 E"
b11111111111111111111 >#
b11111111111111111111 h#
b0 !
b0 4"
b11111111111111111111 "
b11111111111111111111 *
b11111111111111111111 /
b11111111111111111111 ="
b11111111111111111111 C#
b11111111111111111111 G#
b11111111111111111111 k#
b1000000001011 P"
b1000000001011 7#
b1000000001011 Q#
1'
#100
0'
