dump.vcd
$date
	Mon Jul 07 22:39:16 2025
$end
$version
	Icarus Verilog
$end
$timescale
	1s
$end
$scope module testbench $end
$var wire 4 ! state [3:0] $end
$var wire 32 " WriteData [31:0] $end
$var wire 32 # PC [31:0] $end
$var wire 1 $ MemWrite $end
$var wire 32 % Instr [31:0] $end
$var wire 32 & Adr [31:0] $end
$var reg 1 ' clk $end
$var reg 1 ( reset $end
$var integer 32 ) i [31:0] $end
$scope module dut $end
$var wire 1 ' clk $end
$var wire 1 ( reset $end
$var wire 32 * WriteData [31:0] $end
$var wire 32 + ReadData [31:0] $end
$var wire 32 , PC [31:0] $end
$var wire 1 $ MemWrite $end
$var wire 32 - Instr [31:0] $end
$var wire 32 . Adr [31:0] $end
$scope module arm $end
$var wire 1 ' clk $end
$var wire 1 ( reset $end
$var wire 32 / WriteData [31:0] $end
$var wire 2 0 ResultSrc [1:0] $end
$var wire 1 1 RegWriteHi $end
$var wire 1 2 RegWrite $end
$var wire 2 3 RegSrc [1:0] $end
$var wire 32 4 ReadData [31:0] $end
$var wire 1 5 PCWrite $end
$var wire 32 6 PC [31:0] $end
$var wire 1 $ MemWrite $end
$var wire 1 7 IsMovt $end
$var wire 1 8 IsMovm $end
$var wire 32 9 Instr [31:0] $end
$var wire 2 : ImmSrc [1:0] $end
$var wire 1 ; IRWrite $end
$var wire 1 < AdrSrc $end
$var wire 32 = Adr [31:0] $end
$var wire 2 > ALUSrcB [1:0] $end
$var wire 1 ? ALUSrcA $end
$var wire 4 @ ALUFlags [3:0] $end
$var wire 4 A ALUControl [3:0] $end
$scope module c $end
$var wire 1 ' clk $end
$var wire 1 ( reset $end
$var wire 2 B ResultSrc [1:0] $end
$var wire 1 1 RegWriteHi $end
$var wire 1 2 RegWrite $end
$var wire 1 C RegWHi $end
$var wire 1 D RegW $end
$var wire 2 E RegSrc [1:0] $end
$var wire 1 5 PCWrite $end
$var wire 1 F PCS $end
$var wire 1 G NextPC $end
$var wire 1 $ MemWrite $end
$var wire 1 H MemW $end
$var wire 1 7 IsMovt $end
$var wire 1 8 IsMovm $end
$var wire 32 I Instr [31:0] $end
$var wire 2 J ImmSrc [1:0] $end
$var wire 1 ; IRWrite $end
$var wire 2 K FlagW [1:0] $end
$var wire 1 < AdrSrc $end
$var wire 2 L ALUSrcB [1:0] $end
$var wire 1 ? ALUSrcA $end
$var wire 4 M ALUFlags [3:0] $end
$var wire 4 N ALUControl [3:0] $end
$scope module cl $end
$var wire 4 O Cond [3:0] $end
$var wire 2 P FlagWrite [1:0] $end
$var wire 1 $ MemWrite $end
$var wire 1 5 PCWrite $end
$var wire 1 2 RegWrite $end
$var wire 1 1 RegWriteHi $end
$var wire 1 ' clk $end
$var wire 1 ( reset $end
$var wire 1 C RegWHi $end
$var wire 1 D RegW $end
$var wire 1 F PCS $end
$var wire 1 G NextPC $end
$var wire 1 H MemW $end
$var wire 4 Q Flags [3:0] $end
$var wire 2 R FlagW [1:0] $end
$var wire 1 S CondExNext $end
$var wire 1 T CondEx $end
$var wire 4 U ALUFlags [3:0] $end
$scope module condchk $end
$var wire 4 V Cond [3:0] $end
$var wire 4 W Flags [3:0] $end
$var wire 1 X ge $end
$var wire 1 Y zero $end
$var wire 1 Z overflow $end
$var wire 1 [ neg $end
$var wire 1 \ carry $end
$var reg 1 T CondEx $end
$upscope $end
$scope module condreg $end
$var wire 1 ' clk $end
$var wire 1 T d $end
$var wire 1 ( reset $end
$var parameter 32 ] WIDTH $end
$var reg 1 S q $end
$upscope $end
$scope module flagreg_hi $end
$var wire 1 ' clk $end
$var wire 2 ^ d [1:0] $end
$var wire 1 _ en $end
$var wire 1 ( reset $end
$var parameter 32 ` WIDTH $end
$var reg 2 a q [1:0] $end
$upscope $end
$scope module flagreg_lo $end
$var wire 1 ' clk $end
$var wire 2 b d [1:0] $end
$var wire 1 c en $end
$var wire 1 ( reset $end
$var parameter 32 d WIDTH $end
$var reg 2 e q [1:0] $end
$upscope $end
$upscope $end
$scope module dec $end
$var wire 1 8 IsMovm $end
$var wire 1 7 IsMovt $end
$var wire 1 F PCS $end
$var wire 1 C RegWHi $end
$var wire 1 ' clk $end
$var wire 1 f is_custom_float $end
$var wire 1 g is_fadds $end
$var wire 1 h is_fmuls $end
$var wire 1 i is_mov $end
$var wire 1 j is_movm $end
$var wire 1 k is_movt $end
$var wire 1 l is_smul $end
$var wire 1 m is_umul $end
$var wire 1 n mul_long $end
$var wire 1 ( reset $end
$var wire 1 o S_flag $end
$var wire 2 p ResultSrc [1:0] $end
$var wire 1 q RegWHi_int $end
$var wire 1 D RegW $end
$var wire 2 r RegSrc [1:0] $end
$var wire 4 s Rd [3:0] $end
$var wire 4 t Opcode [3:0] $end
$var wire 2 u Op [1:0] $end
$var wire 1 G NextPC $end
$var wire 1 H MemW $end
$var wire 32 v Instr [31:0] $end
$var wire 2 w ImmSrc [1:0] $end
$var wire 1 x I_flag $end
$var wire 1 ; IRWrite $end
$var wire 6 y Funct [5:0] $end
$var wire 1 z Branch $end
$var wire 1 < AdrSrc $end
$var wire 2 { ALUSrcB [1:0] $end
$var wire 1 ? ALUSrcA $end
$var wire 1 | ALUOp $end
$var reg 4 } ALUControl [3:0] $end
$var reg 2 ~ FlagW [1:0] $end
$scope module fsm $end
$var wire 6 !" Funct [5:0] $end
$var wire 2 "" Op [1:0] $end
$var wire 1 ' clk $end
$var wire 1 ( reset $end
$var wire 2 #" ResultSrc [1:0] $end
$var wire 1 q RegWHi $end
$var wire 1 D RegW $end
$var wire 1 G NextPC $end
$var wire 1 H MemW $end
$var wire 1 ; IRWrite $end
$var wire 1 z Branch $end
$var wire 1 < AdrSrc $end
$var wire 2 $" ALUSrcB [1:0] $end
$var wire 1 ? ALUSrcA $end
$var wire 1 | ALUOp $end
$var parameter 4 %" ALUWB $end
$var parameter 4 &" BRANCH $end
$var parameter 4 '" DECODE $end
$var parameter 4 (" EXECUTEI $end
$var parameter 4 )" EXECUTER $end
$var parameter 4 *" FETCH $end
$var parameter 4 +" MEMADR $end
$var parameter 4 ," MEMRD $end
$var parameter 4 -" MEMWB $end
$var parameter 4 ." MEMWR $end
$var parameter 4 /" UNKNOWN $end
$var reg 13 0" controls [12:0] $end
$var reg 4 1" nextstate [3:0] $end
$var reg 4 2" state [3:0] $end
$upscope $end
$upscope $end
$upscope $end
$scope module dp $end
$var wire 4 3" ALUControl [3:0] $end
$var wire 1 ? ALUSrcA $end
$var wire 2 4" ALUSrcB [1:0] $end
$var wire 1 < AdrSrc $end
$var wire 1 ; IRWrite $end
$var wire 2 5" ImmSrc [1:0] $end
$var wire 1 8 IsMovm $end
$var wire 1 7 IsMovt $end
$var wire 1 $ MemWrite $end
$var wire 32 6" PCNext [31:0] $end
$var wire 1 5 PCWrite $end
$var wire 2 7" RegSrc [1:0] $end
$var wire 1 2 RegWrite $end
$var wire 1 1 RegWriteHi $end
$var wire 2 8" ResultSrc [1:0] $end
$var wire 1 ' clk $end
$var wire 1 9" isMul $end
$var wire 1 ( reset $end
$var wire 32 :" WriteData [31:0] $end
$var wire 4 ;" WA4 [3:0] $end
$var wire 4 <" WA3 [3:0] $end
$var wire 32 =" SrcB [31:0] $end
$var wire 32 >" SrcA [31:0] $end
$var wire 32 ?" Result [31:0] $end
$var wire 32 @" ReadData [31:0] $end
$var wire 32 A" RD2 [31:0] $end
$var wire 32 B" RD1 [31:0] $end
$var wire 4 C" RA2 [3:0] $end
$var wire 4 D" RA1 [3:0] $end
$var wire 32 E" PC [31:0] $end
$var wire 32 F" Instr [31:0] $end
$var wire 32 G" ExtImm [31:0] $end
$var wire 32 H" Data [31:0] $end
$var wire 32 I" Adr [31:0] $end
$var wire 32 J" ALUResultHi [31:0] $end
$var wire 32 K" ALUResult [31:0] $end
$var wire 32 L" ALUOutHi [31:0] $end
$var wire 32 M" ALUOut [31:0] $end
$var wire 4 N" ALUFlags [3:0] $end
$var wire 32 O" A [31:0] $end
$scope module alu $end
$var wire 4 P" ALUControl [3:0] $end
$var wire 32 Q" a [31:0] $end
$var wire 1 R" is_logic $end
$var wire 1 S" resultado_signo $end
$var wire 1 T" zero $end
$var wire 64 U" umul_result [63:0] $end
$var wire 33 V" sum [32:0] $end
$var wire 64 W" smul_result [63:0] $end
$var wire 1 X" signo_b $end
$var wire 1 Y" signo_a $end
$var wire 1 Z" sign_b $end
$var wire 1 [" sign_a $end
$var wire 1 \" result_sign $end
$var wire 23 ]" result_mant [22:0] $end
$var wire 8 ^" result_exp [7:0] $end
$var wire 1 _" overflow $end
$var wire 24 `" norm_mant_b [23:0] $end
$var wire 24 a" norm_mant_a [23:0] $end
$var wire 1 b" neg $end
$var wire 48 c" mult_result [47:0] $end
$var wire 64 d" mul_unsigned [63:0] $end
$var wire 23 e" mant_b [22:0] $end
$var wire 23 f" mant_a [22:0] $end
$var wire 32 g" float_mul_result [31:0] $end
$var wire 32 h" float_add_result [31:0] $end
$var wire 8 i" exp_b [7:0] $end
$var wire 8 j" exp_a [7:0] $end
$var wire 32 k" condinvb [31:0] $end
$var wire 1 l" carry $end
$var wire 32 m" b [31:0] $end
$var wire 25 n" add_result [24:0] $end
$var wire 32 o" abs_b [31:0] $end
$var wire 32 p" abs_a [31:0] $end
$var wire 32 q" ExtImm [31:0] $end
$var wire 4 r" ALUFlags [3:0] $end
$var wire 32 s" A [31:0] $end
$var reg 32 t" Result [31:0] $end
$var reg 32 u" ResultHi [31:0] $end
$var reg 24 v" aligned_mant [23:0] $end
$var reg 8 w" exp_diff [7:0] $end
$upscope $end
$scope module ext $end
$var wire 2 x" ImmSrc [1:0] $end
$var wire 24 y" Instr [23:0] $end
$var wire 1 8 IsMovm $end
$var wire 1 7 IsMovt $end
$var reg 32 z" ExtImm [31:0] $end
$upscope $end
$scope module ffALUOut $end
$var wire 1 ' clk $end
$var wire 32 {" d [31:0] $end
$var wire 1 ( reset $end
$var parameter 32 |" WIDTH $end
$var reg 32 }" q [31:0] $end
$upscope $end
$scope module ffALUOutHi $end
$var wire 1 ' clk $end
$var wire 32 ~" d [31:0] $end
$var wire 1 ( reset $end
$var parameter 32 !# WIDTH $end
$var reg 32 "# q [31:0] $end
$upscope $end
$scope module ffData $end
$var wire 1 ' clk $end
$var wire 1 ( reset $end
$var wire 32 ## d [31:0] $end
$var parameter 32 $# WIDTH $end
$var reg 32 %# q [31:0] $end
$upscope $end
$scope module ffRD1 $end
$var wire 1 ' clk $end
$var wire 1 ( reset $end
$var wire 32 &# d [31:0] $end
$var parameter 32 '# WIDTH $end
$var reg 32 (# q [31:0] $end
$upscope $end
$scope module ffRD2 $end
$var wire 1 ' clk $end
$var wire 1 ( reset $end
$var wire 32 )# d [31:0] $end
$var parameter 32 *# WIDTH $end
$var reg 32 +# q [31:0] $end
$upscope $end
$scope module irreg $end
$var wire 1 ' clk $end
$var wire 1 ; en $end
$var wire 1 ( reset $end
$var wire 32 ,# d [31:0] $end
$var parameter 32 -# WIDTH $end
$var reg 32 .# q [31:0] $end
$upscope $end
$scope module muxALUSrcB $end
$var wire 32 /# d0 [31:0] $end
$var wire 32 0# d1 [31:0] $end
$var wire 32 1# d2 [31:0] $end
$var wire 2 2# s [1:0] $end
$var wire 32 3# y [31:0] $end
$var parameter 32 4# WIDTH $end
$upscope $end
$scope module muxAdrSrc $end
$var wire 1 < s $end
$var wire 32 5# y [31:0] $end
$var wire 32 6# d1 [31:0] $end
$var wire 32 7# d0 [31:0] $end
$var parameter 32 8# WIDTH $end
$upscope $end
$scope module muxResultSrc $end
$var wire 32 9# d0 [31:0] $end
$var wire 32 :# d1 [31:0] $end
$var wire 32 ;# d2 [31:0] $end
$var wire 2 <# s [1:0] $end
$var wire 32 =# y [31:0] $end
$var parameter 32 ># WIDTH $end
$upscope $end
$scope module pcreg $end
$var wire 1 ' clk $end
$var wire 32 ?# d [31:0] $end
$var wire 1 5 en $end
$var wire 1 ( reset $end
$var parameter 32 @# WIDTH $end
$var reg 32 A# q [31:0] $end
$upscope $end
$scope module rf $end
$var wire 1 ' clk $end
$var wire 32 B# r15 [31:0] $end
$var wire 4 C# ra1 [3:0] $end
$var wire 4 D# ra2 [3:0] $end
$var wire 4 E# wa3 [3:0] $end
$var wire 4 F# wa4 [3:0] $end
$var wire 32 G# wd3 [31:0] $end
$var wire 32 H# wd4 [31:0] $end
$var wire 1 2 we3 $end
$var wire 1 1 we4 $end
$var wire 32 I# rd2 [31:0] $end
$var wire 32 J# rd1 [31:0] $end
$upscope $end
$upscope $end
$upscope $end
$scope module mem $end
$var wire 32 K# a [31:0] $end
$var wire 1 ' clk $end
$var wire 32 L# rd [31:0] $end
$var wire 32 M# wd [31:0] $end
$var wire 1 $ we $end
$upscope $end
$upscope $end
$upscope $end
$enddefinitions $end
$comment Show the parameter values. $end
$dumpall
b100000 @#
b100000 >#
b100000 8#
b100000 4#
b100000 -#
b100000 *#
b100000 '#
b100000 $#
b100000 !#
b100000 |"
b1010 /"
b101 ."
b100 -"
b11 ,"
b10 +"
b0 *"
b110 )"
b111 ("
b1 '"
b1001 &"
b1000 %"
b10 d
b10 `
b1 ]
$end
#0
$dumpvars
b0 M#
b11100011101000000001000000000000 L#
b0 K#
bx J#
bx I#
b0 H#
b100 G#
b0 F#
b0 E#
b0 D#
b0 C#
b100 B#
b0 A#
b100 ?#
b100 =#
b10 <#
b100 ;#
b0 :#
b0 9#
b0 7#
b100 6#
b0 5#
b100 3#
b10 2#
b100 1#
b0 0#
b0 /#
b0 .#
b11100011101000000001000000000000 ,#
b0 +#
bx )#
b0 (#
bx &#
b0 %#
b11100011101000000001000000000000 ##
b0 "#
b0 ~"
b0 }"
b100 {"
b0 z"
b0 y"
b0 x"
b0 w"
b100000000000000000000100 v"
b0 u"
b100 t"
b0 s"
b0 r"
b0 q"
b0 p"
b100 o"
b1000000000000000000000100 n"
b100 m"
0l"
b100 k"
b0 j"
b0 i"
b100 h"
b1000000100000000000000000000100 g"
b0 f"
b100 e"
b0 d"
b10000000000000000000010000000000000000000000000 c"
0b"
b100000000000000000000000 a"
b100000000000000000000100 `"
0_"
b0 ^"
b100 ]"
0\"
0["
0Z"
0Y"
0X"
b0 W"
b100 V"
b0 U"
0T"
0S"
0R"
b0 Q"
b0 P"
b0 O"
b0 N"
b0 M"
b0 L"
b100 K"
b0 J"
b0 I"
b0 H"
b0 G"
b0 F"
b0 E"
b0 D"
b0 C"
bx B"
bx A"
b11100011101000000001000000000000 @"
b100 ?"
b0 >"
b100 ="
b0 <"
b0 ;"
b0 :"
09"
b10 8"
b0 7"
b100 6"
b0 5"
b10 4"
b0 3"
b0 2"
b1 1"
b10010101100 0"
b10 $"
b10 #"
b0 ""
b0 !"
b0 ~
b0 }
0|
b10 {
1z
b0 y
0x
b0 w
b0 v
b0 u
b0 t
b0 s
b0 r
0q
b10 p
0o
0n
0m
0l
0k
0j
0i
0h
0g
0f
b0 e
0c
b0 b
b0 a
0_
b0 ^
0\
0[
0Z
0Y
1X
b0 W
b0 V
b0 U
0T
0S
b0 R
b0 Q
b0 P
b0 O
b0 N
b0 M
b10 L
b0 K
b0 J
b0 I
0H
0G
1F
b0 E
0D
0C
b10 B
b0 A
b0 @
1?
b10 >
b0 =
0<
1;
b0 :
b0 9
08
07
b0 6
15
b11100011101000000001000000000000 4
b0 3
02
01
b10 0
b0 /
b0 .
b0 -
b0 ,
b11100011101000000001000000000000 +
b0 *
bx )
1(
0'
b0 &
b0 %
0$
b0 #
b0 "
b0 !
$end
#5
1'
#10
0'
#15
1'
#20
0'
#22
0(
#25
b11 :
b11 J
b11 w
b11 5"
b11 x"
b1000 h"
b1000 ]"
b1000000000000000000001000 n"
05
b10000 W"
b1000000100000000000000000001000 g"
0F
b1000 6"
b1000 ?#
b1000 ?"
b1000 6#
b1000 =#
b1000 B#
b1000 G#
1i
1T
b11100011110000000001000011000000 +
b11100011110000000001000011000000 4
b11100011110000000001000011000000 @"
b11100011110000000001000011000000 ##
b11100011110000000001000011000000 ,#
b11100011110000000001000011000000 L#
b10000 d"
b100 p"
b10000000000000000000100000000000000000000010000 c"
b100000000000000000000100 a"
b100 f"
0z
0;
b0 @
b0 M
b0 U
b0 N"
b0 r"
0T"
b1000 K"
b1000 t"
b1000 {"
b1000 ;#
b101000000001000000000000 y"
b1 <"
b1 E#
b111010 y
b111010 !"
b1 s
b1101 t
1x
b1110 O
b1110 V
b100 &
b100 .
b100 =
b100 I"
b100 5#
b100 K#
b10000 U"
b1000 V"
b100 >"
b100 Q"
b101100 0"
b111 1"
b11100011101000000001000000000000 H"
b11100011101000000001000000000000 %#
b11100011101000000001000000000000 :#
b100 M"
b100 }"
b100 9#
bx "
bx *
bx /
bx :"
bx +#
bx /#
bx M#
bx O"
bx s"
bx (#
b11100011101000000001000000000000 %
b11100011101000000001000000000000 -
b11100011101000000001000000000000 9
b11100011101000000001000000000000 I
b11100011101000000001000000000000 v
b11100011101000000001000000000000 F"
b11100011101000000001000000000000 .#
b100 #
b100 ,
b100 6
b100 E"
b100 7#
b100 A#
b1 !
b1 2"
1'
b111 )
#30
0'
#35
x_"
bx b
bx ]"
xl"
xS"
bx W"
bx n"
bx ^"
bx h"
x\"
bx v"
bx w"
b100000000000000000000000 `"
b0 e"
b0 o"
b1 ^
b11111111111111111111111111111111 k"
xY"
bx d"
bx p"
x["
bx g"
bx j"
bx c"
b1xxxxxxxxxxxxxxxxxxxxxxx a"
bx f"
b0 ="
b0 m"
b0 3#
b1xx @
b1xx M
b1xx U
b1xx N"
b1xx r"
1T"
b0 K"
b0 t"
b0 {"
b0 ;#
bx U"
bx V"
bx >"
bx Q"
b1011 A
b1011 N
b1011 }
b1011 3"
b1011 P"
b0 0
b0 B
b0 p
b0 #"
b0 8"
b0 <#
0?
b1 >
b1 L
b1 {
b1 $"
b1 4"
b1 2#
1|
b11 0"
b1000 1"
b111 !
b111 2"
1S
b1000 M"
b1000 }"
b1000 9#
b11100011110000000001000011000000 H"
b11100011110000000001000011000000 %#
b11100011110000000001000011000000 :#
1'
#40
0'
#45
b1xxxxxxxxxxxxxxxxxxxxxxx `"
bx e"
bx i"
xZ"
bx o"
xX"
bx ="
bx m"
bx 3#
xb"
bx ^
bx k"
bx @
bx M
bx U
bx N"
bx r"
xT"
bx K"
bx t"
bx {"
bx ;#
12
b0 A
b0 N
b0 }
b0 3"
b0 P"
b0 6"
b0 ?#
b0 ?"
b0 6#
b0 =#
b0 B#
b0 G#
1q
1D
b0 >
b0 L
b0 {
b0 $"
b0 4"
b0 2#
0|
b1000100000000 0"
b0 1"
b0 M"
b0 }"
b0 9#
b1000 !
b1000 2"
1'
#50
0'
#55
0_"
b1000 ]"
b0 b
b1000000000000000000001000 n"
0l"
0b"
b0 ^
b10000 W"
b10000 d"
b100 p"
0S"
0\"
b1000 h"
b0 ^"
b100000000000000000000100 v"
b0 w"
b10000000000000000000100000000000000000000010000 c"
b100000000000000000000100 `"
b100 e"
b1000000100000000000000000001000 g"
b0 i"
0Z"
b100 o"
0X"
b1000 V"
b100 k"
15
b0 @
b0 M
b0 U
b0 N"
b0 r"
0T"
b1000 K"
b1000 t"
b1000 {"
b1000 ;#
0Y"
0["
b0 j"
b100000000000000000000100 a"
b100 f"
b10000 U"
b100 ="
b100 m"
b100 3#
1F
02
b100 >"
b100 Q"
0q
1z
0D
1;
b10 0
b10 B
b10 p
b10 #"
b10 8"
b10 <#
1?
b10 >
b10 L
b10 {
b10 $"
b10 4"
b10 2#
b1000 6"
b1000 ?#
b1000 ?"
b1000 6#
b1000 =#
b1000 B#
b1000 G#
b10010101100 0"
b1 1"
b0 !
b0 2"
bx M"
bx }"
bx 9#
1'
#60
0'
#65
b0 B"
b0 &#
b0 J#
b1100 h"
b1100 ]"
b1 D"
b1 C#
b1000000000000000000001100 n"
05
b1100 6"
b1100 ?#
b1100 ?"
b1100 6#
b1100 =#
b1100 B#
b1100 G#
b100000 W"
b1000000100000000000000000001100 g"
0F
b11000000000000000000 G"
b11000000000000000000 q"
b11000000000000000000 z"
b11000000000000000000 0#
18
1j
0i
b11100011010000000001010000001111 +
b11100011010000000001010000001111 4
b11100011010000000001010000001111 @"
b11100011010000000001010000001111 ##
b11100011010000000001010000001111 ,#
b11100011010000000001010000001111 L#
b0 @
b0 M
b0 U
b0 N"
b0 r"
0T"
b1100 K"
b1100 t"
b1100 {"
b1100 ;#
b100000 d"
b1000 p"
b10000000000000000000110000000000000000000100000 c"
b100000000000000000001000 a"
b1000 f"
0z
0;
b110000000001000011000000 y"
b111100 y
b111100 !"
b1110 t
b1000 &
b1000 .
b1000 =
b1000 I"
b1000 5#
b1000 K#
b100000 U"
b1100 V"
b1000 >"
b1000 Q"
b101100 0"
b111 1"
b1000 M"
b1000 }"
b1000 9#
b11100011110000000001000011000000 %
b11100011110000000001000011000000 -
b11100011110000000001000011000000 9
b11100011110000000001000011000000 I
b11100011110000000001000011000000 v
b11100011110000000001000011000000 F"
b11100011110000000001000011000000 .#
b1000 #
b1000 ,
b1000 6
b1000 E"
b1000 7#
b1000 A#
b1 !
b1 2"
1'
#70
0'
#75
b11000000000000000000 h"
b11000000000000000000 ]"
b1000011000000000000000000 n"
b0 W"
b1000000100011000000000000000000 g"
b100011000000000000000000 v"
b100011000000000000000000 `"
b11000000000000000000 e"
b11000000000000000000 o"
b11111111111100111111111111111111 k"
b0 d"
b0 p"
b10001100000000000000000000000000000000000000000 c"
b100000000000000000000000 a"
b0 f"
b11000000000000000000 ="
b11000000000000000000 m"
b11000000000000000000 3#
b0 U"
b11111111111101000000000000000000 V"
b0 >"
b0 Q"
b1101 A
b1101 N
b1101 }
b1101 3"
b1101 P"
b0 0
b0 B
b0 p
b0 #"
b0 8"
b0 <#
0?
b1 >
b1 L
b1 {
b1 $"
b1 4"
b1 2#
1|
b11 0"
b1000 1"
b0 @
b0 M
b0 U
b0 N"
b0 r"
0T"
b11000000000000000000 K"
b11000000000000000000 t"
b11000000000000000000 {"
b11000000000000000000 ;#
b111 !
b111 2"
b0 O"
b0 s"
b0 (#
b1100 M"
b1100 }"
b1100 9#
b11100011010000000001010000001111 H"
b11100011010000000001010000001111 %#
b11100011010000000001010000001111 :#
1'
#80
0'
#85
bx b
bx ]"
xl"
x_"
bx n"
bx ^"
bx h"
x\"
bx v"
bx w"
bx W"
xS"
bx c"
b1xxxxxxxxxxxxxxxxxxxxxxx `"
bx e"
bx g"
bx i"
xZ"
bx d"
bx o"
xX"
bx ^
bx U"
bx ="
bx m"
bx 3#
xb"
bx k"
bx @
bx M
bx U
bx N"
bx r"
xT"
bx K"
bx t"
bx {"
bx ;#
bx V"
12
b0 A
b0 N
b0 }
b0 3"
b0 P"
b11000000000000000000 6"
b11000000000000000000 ?#
b11000000000000000000 ?"
b11000000000000000000 6#
b11000000000000000000 =#
b11000000000000000000 B#
b11000000000000000000 G#
1q
1D
b0 >
b0 L
b0 {
b0 $"
b0 4"
b0 2#
0|
b1000100000000 0"
b0 1"
b11000000000000000000 M"
b11000000000000000000 }"
b11000000000000000000 9#
b1000 !
b1000 2"
1'
#90
0'
#95
0_"
b1100 ]"
b0 b
b1000000000000000000001100 n"
0l"
0b"
b0 ^
b0 ^"
b1100 h"
0\"
b100000 W"
0S"
b100000000000000000000100 v"
b0 w"
b10000000000000000000110000000000000000000100000 c"
b100000000000000000000100 `"
b100 e"
b1000000100000000000000000001100 g"
b0 i"
0Z"
b100000 d"
b100 o"
0X"
b1100 V"
b100 k"
15
b0 @
b0 M
b0 U
b0 N"
b0 r"
0T"
b1100 K"
b1100 t"
b1100 {"
b1100 ;#
b1000 p"
b100000000000000000001000 a"
b1000 f"
b100000 U"
b100 ="
b100 m"
b100 3#
1F
02
b1000 >"
b1000 Q"
0q
1z
0D
1;
b10 0
b10 B
b10 p
b10 #"
b10 8"
b10 <#
1?
b10 >
b10 L
b10 {
b10 $"
b10 4"
b10 2#
b1100 6"
b1100 ?#
b1100 ?"
b1100 6#
b1100 =#
b1100 B#
b1100 G#
b10010101100 0"
b1 1"
b11000000000000000000 B"
b11000000000000000000 &#
b11000000000000000000 J#
b0 !
b0 2"
bx M"
bx }"
bx 9#
1'
#100
0'
#105
b10000 h"
b10000 ]"
b10000 A"
b10000 )#
b10000 I#
b1000000000000000000010000 n"
05
b1111 C"
b1111 D#
b110000 W"
b1000000100000000000000000010000 g"
0F
b10000 6"
b10000 ?#
b10000 ?"
b10000 6#
b10000 =#
b10000 B#
b10000 G#
b1000000111100000000000000000000 G"
b1000000111100000000000000000000 q"
b1000000111100000000000000000000 z"
b1000000111100000000000000000000 0#
08
0j
17
1k
bx +
bx 4
bx @"
bx ##
bx ,#
bx L#
b110000 d"
b1100 p"
b10000000000000000001000000000000000000000110000 c"
b100000000000000000001100 a"
b1100 f"
0z
0;
b0 @
b0 M
b0 U
b0 N"
b0 r"
0T"
b10000 K"
b10000 t"
b10000 {"
b10000 ;#
b10000000001010000001111 y"
b110100 y
b110100 !"
b1010 t
b1100 &
b1100 .
b1100 =
b1100 I"
b1100 5#
b1100 K#
b110000 U"
b10000 V"
b1100 >"
b1100 Q"
b101100 0"
b111 1"
b1100 M"
b1100 }"
b1100 9#
b11000000000000000000 O"
b11000000000000000000 s"
b11000000000000000000 (#
b11100011010000000001010000001111 %
b11100011010000000001010000001111 -
b11100011010000000001010000001111 9
b11100011010000000001010000001111 I
b11100011010000000001010000001111 v
b11100011010000000001010000001111 F"
b11100011010000000001010000001111 .#
b1100 #
b1100 ,
b1100 6
b1100 E"
b1100 7#
b1100 A#
b1 !
b1 2"
1'
#110
0'
#115
b11100000000000000000000 ]"
b111100000000000000000000 n"
b1000000111100000000000000000000 h"
b10000001 ^"
b11000010110100000000000000000000000000000000000000 W"
b0 v"
b10000001 w"
b111100000000000000000000 `"
b11100000000000000000000 e"
b1000001101000000000000000 g"
b10000001 i"
b1000000111100000000000000000000 o"
b1000000111100000000000000000000 k"
b11000010110100000000000000000000000000000000000000 d"
b11000000000000000000 p"
b100000110100000000000000000000000000000000000000 c"
b100011000000000000000000 a"
b11000000000000000000 f"
b1000000111100000000000000000000 ="
b1000000111100000000000000000000 m"
b1000000111100000000000000000000 3#
b0 @
b0 M
b0 U
b0 N"
b0 r"
0T"
b1000000111111000000000000000000 K"
b1000000111111000000000000000000 t"
b1000000111111000000000000000000 {"
b1000000111111000000000000000000 ;#
b11000010110100000000000000000000000000000000000000 U"
b1000000111111000000000000000000 V"
b11000000000000000000 >"
b11000000000000000000 Q"
b1100 A
b1100 N
b1100 }
b1100 3"
b1100 P"
b0 0
b0 B
b0 p
b0 #"
b0 8"
b0 <#
0?
b1 >
b1 L
b1 {
b1 $"
b1 4"
b1 2#
1|
b11 0"
b1000 1"
b111 !
b111 2"
b10000 "
b10000 *
b10000 /
b10000 :"
b10000 +#
b10000 /#
b10000 M#
b10000 M"
b10000 }"
b10000 9#
bx H"
bx %#
bx :#
1'
#120
0'
#125
b11000000000000010000 ]"
b1000011000000000000010000 n"
b11000000000000010000 h"
b0 ^"
b100000000000000000010000 v"
b0 w"
b110000000000000000000000 W"
b10001100000000000001000110000000000000000000000 c"
b100000000000000000010000 `"
b10000 e"
b1000000100011000000000000010001 g"
b0 i"
b110000000000000000000000 d"
b10000 o"
b11000000000000010000 V"
b10000 k"
b110000000000000000000000 U"
b10000 ="
b10000 m"
b10000 3#
b0 @
b0 M
b0 U
b0 N"
b0 r"
0T"
b11000000000000010000 K"
b11000000000000010000 t"
b11000000000000010000 {"
b11000000000000010000 ;#
b1000000111111000000000000000000 A"
b1000000111111000000000000000000 )#
b1000000111111000000000000000000 I#
12
b0 A
b0 N
b0 }
b0 3"
b0 P"
b1000000111111000000000000000000 6"
b1000000111111000000000000000000 ?#
b1000000111111000000000000000000 ?"
b1000000111111000000000000000000 6#
b1000000111111000000000000000000 =#
b1000000111111000000000000000000 B#
b1000000111111000000000000000000 G#
1q
1D
b0 >
b0 L
b0 {
b0 $"
b0 4"
b0 2#
0|
b1000100000000 0"
b0 1"
b1000000111111000000000000000000 M"
b1000000111111000000000000000000 }"
b1000000111111000000000000000000 9#
b1000 !
b1000 2"
1'
#130
0'
#135
b10000 ]"
15
b1100 p"
b100000000000000000001100 a"
b1100 f"
b1000000000000000000010000 n"
b10000 h"
b0 ^"
b100000000000000000000100 v"
b0 w"
b110000 W"
1F
02
b1100 >"
b1100 Q"
b10000000000000000001000000000000000000000110000 c"
b100000000000000000000100 `"
b100 e"
b1000000100000000000000000010000 g"
b0 i"
b110000 d"
b100 o"
b10000 V"
b100 k"
b0 @
b0 M
b0 U
b0 N"
b0 r"
0T"
b10000 K"
b10000 t"
b10000 {"
b10000 ;#
b10000 A"
b10000 )#
b10000 I#
0q
1z
0D
1;
b10 0
b10 B
b10 p
b10 #"
b10 8"
b10 <#
1?
b10 >
b10 L
b10 {
b10 $"
b10 4"
b10 2#
b110000 U"
b100 ="
b100 m"
b100 3#
b10000 6"
b10000 ?#
b10000 ?"
b10000 6#
b10000 =#
b10000 B#
b10000 G#
b10010101100 0"
b1 1"
b1000000111111000000000000000000 B"
b1000000111111000000000000000000 &#
b1000000111111000000000000000000 J#
b0 !
b0 2"
b1000000111111000000000000000000 "
b1000000111111000000000000000000 *
b1000000111111000000000000000000 /
b1000000111111000000000000000000 :"
b1000000111111000000000000000000 +#
b1000000111111000000000000000000 /#
b1000000111111000000000000000000 M#
b11000000000000010000 M"
b11000000000000010000 }"
b11000000000000010000 9#
1'
#140
0'
